G75*
%MOIN*%
%OFA0B0*%
%FSLAX25Y25*%
%IPPOS*%
%LPD*%
%AMOC8*
5,1,8,0,0,1.08239X$1,22.5*
%
%ADD10C,0.00000*%
%ADD11C,0.06000*%
%ADD12OC8,0.07400*%
%ADD13C,0.01000*%
%ADD14C,0.02400*%
%ADD15C,0.01600*%
%ADD16C,0.03169*%
D10*
X0027800Y0009300D02*
X0027800Y0241761D01*
X0187201Y0241761D01*
X0186901Y0009300D01*
X0027800Y0009300D01*
D11*
X0035900Y0221400D02*
X0041900Y0221400D01*
X0041900Y0231400D02*
X0035900Y0231400D01*
D12*
X0058292Y0146296D03*
X0058292Y0136296D03*
X0058292Y0126296D03*
X0068292Y0126296D03*
X0068292Y0136296D03*
X0068292Y0146296D03*
X0068292Y0064296D03*
X0068292Y0054296D03*
X0068292Y0044296D03*
X0058292Y0044296D03*
X0058292Y0054296D03*
X0058292Y0064296D03*
D13*
X0058200Y0064500D01*
X0058200Y0106100D01*
X0125400Y0173300D01*
X0125400Y0182900D01*
X0105400Y0202900D01*
X0105400Y0203700D01*
X0128600Y0201300D02*
X0128600Y0162100D01*
X0124600Y0158100D01*
X0124600Y0088500D01*
X0106200Y0100500D02*
X0106200Y0150100D01*
X0110200Y0150100D02*
X0110200Y0062100D01*
X0113400Y0058900D01*
X0090200Y0097300D02*
X0086200Y0101300D01*
X0068600Y0126100D02*
X0068292Y0126296D01*
X0068600Y0126100D02*
X0081400Y0138900D01*
X0040600Y0092500D02*
X0040600Y0064500D01*
X0055800Y0049300D01*
X0063000Y0049300D01*
X0067800Y0044500D01*
X0068292Y0044296D01*
X0127000Y0127700D02*
X0127000Y0156500D01*
X0130200Y0155700D02*
X0135800Y0150100D01*
X0136600Y0146900D02*
X0173400Y0183700D01*
X0173400Y0195700D01*
X0151800Y0150100D02*
X0130200Y0128500D01*
X0127000Y0127700D02*
X0159800Y0094900D01*
X0159800Y0058900D01*
D14*
X0159800Y0058900D03*
X0124600Y0088500D03*
X0106200Y0100500D03*
X0090200Y0097300D03*
X0086200Y0101300D03*
X0081400Y0138900D03*
X0106200Y0150100D03*
X0110200Y0150100D03*
X0127000Y0156500D03*
X0130200Y0155700D03*
X0135800Y0150100D03*
X0136600Y0146900D03*
X0130200Y0128500D03*
X0151800Y0150100D03*
X0125400Y0182900D03*
X0128600Y0201300D03*
X0105400Y0203700D03*
X0173400Y0195700D03*
X0113400Y0058900D03*
X0040600Y0092500D03*
D15*
X0038000Y0092423D02*
X0030600Y0092423D01*
X0030600Y0094021D02*
X0038444Y0094021D01*
X0038396Y0093973D02*
X0038000Y0093017D01*
X0038000Y0091983D01*
X0038396Y0091027D01*
X0038700Y0090723D01*
X0038700Y0063713D01*
X0053900Y0048513D01*
X0054598Y0047815D01*
X0053192Y0046409D01*
X0053192Y0042184D01*
X0056180Y0039196D01*
X0060405Y0039196D01*
X0063292Y0042084D01*
X0066180Y0039196D01*
X0070405Y0039196D01*
X0073392Y0042184D01*
X0073392Y0046409D01*
X0070505Y0049296D01*
X0073392Y0052184D01*
X0073392Y0056409D01*
X0070505Y0059296D01*
X0073392Y0062184D01*
X0073392Y0066409D01*
X0070405Y0069396D01*
X0066180Y0069396D01*
X0063292Y0066509D01*
X0060405Y0069396D01*
X0060100Y0069396D01*
X0060100Y0105313D01*
X0103825Y0149038D01*
X0103996Y0148627D01*
X0104300Y0148323D01*
X0104300Y0102277D01*
X0103996Y0101973D01*
X0103600Y0101017D01*
X0103600Y0099983D01*
X0103996Y0099027D01*
X0104727Y0098296D01*
X0105683Y0097900D01*
X0106717Y0097900D01*
X0107673Y0098296D01*
X0108300Y0098923D01*
X0108300Y0061313D01*
X0110800Y0058813D01*
X0110800Y0058383D01*
X0111196Y0057427D01*
X0111927Y0056696D01*
X0112883Y0056300D01*
X0113917Y0056300D01*
X0114873Y0056696D01*
X0115604Y0057427D01*
X0116000Y0058383D01*
X0116000Y0059417D01*
X0115604Y0060373D01*
X0114873Y0061104D01*
X0113917Y0061500D01*
X0113487Y0061500D01*
X0112100Y0062887D01*
X0112100Y0148323D01*
X0112404Y0148627D01*
X0112800Y0149583D01*
X0112800Y0150617D01*
X0112404Y0151573D01*
X0111673Y0152304D01*
X0110717Y0152700D01*
X0109683Y0152700D01*
X0108727Y0152304D01*
X0108200Y0151777D01*
X0107673Y0152304D01*
X0107262Y0152475D01*
X0126187Y0171400D01*
X0126700Y0171913D01*
X0126700Y0162887D01*
X0123813Y0160000D01*
X0122700Y0158887D01*
X0122700Y0090277D01*
X0122396Y0089973D01*
X0122000Y0089017D01*
X0122000Y0087983D01*
X0122396Y0087027D01*
X0123127Y0086296D01*
X0124083Y0085900D01*
X0125117Y0085900D01*
X0126073Y0086296D01*
X0126804Y0087027D01*
X0127200Y0087983D01*
X0127200Y0089017D01*
X0126804Y0089973D01*
X0126500Y0090277D01*
X0126500Y0125513D01*
X0157900Y0094113D01*
X0157900Y0060677D01*
X0157596Y0060373D01*
X0157200Y0059417D01*
X0157200Y0058383D01*
X0157596Y0057427D01*
X0158327Y0056696D01*
X0159283Y0056300D01*
X0160317Y0056300D01*
X0161273Y0056696D01*
X0162004Y0057427D01*
X0162400Y0058383D01*
X0162400Y0059417D01*
X0162004Y0060373D01*
X0161700Y0060677D01*
X0161700Y0095687D01*
X0131262Y0126125D01*
X0131673Y0126296D01*
X0132404Y0127027D01*
X0132800Y0127983D01*
X0132800Y0128413D01*
X0151887Y0147500D01*
X0152317Y0147500D01*
X0153273Y0147896D01*
X0154004Y0148627D01*
X0154400Y0149583D01*
X0154400Y0150617D01*
X0154004Y0151573D01*
X0153273Y0152304D01*
X0152317Y0152700D01*
X0151283Y0152700D01*
X0150327Y0152304D01*
X0149596Y0151573D01*
X0149200Y0150617D01*
X0149200Y0150187D01*
X0130113Y0131100D01*
X0129683Y0131100D01*
X0128900Y0130776D01*
X0128900Y0153424D01*
X0129683Y0153100D01*
X0130113Y0153100D01*
X0133200Y0150013D01*
X0133200Y0149583D01*
X0133596Y0148627D01*
X0134236Y0147987D01*
X0134000Y0147417D01*
X0134000Y0146383D01*
X0134396Y0145427D01*
X0135127Y0144696D01*
X0136083Y0144300D01*
X0137117Y0144300D01*
X0138073Y0144696D01*
X0138804Y0145427D01*
X0139200Y0146383D01*
X0139200Y0146813D01*
X0175300Y0182913D01*
X0175300Y0193923D01*
X0175604Y0194227D01*
X0176000Y0195183D01*
X0176000Y0196217D01*
X0175604Y0197173D01*
X0174873Y0197904D01*
X0173917Y0198300D01*
X0172883Y0198300D01*
X0171927Y0197904D01*
X0171196Y0197173D01*
X0170800Y0196217D01*
X0170800Y0195183D01*
X0171196Y0194227D01*
X0171500Y0193923D01*
X0171500Y0184487D01*
X0138175Y0151162D01*
X0138004Y0151573D01*
X0137273Y0152304D01*
X0136317Y0152700D01*
X0135887Y0152700D01*
X0132800Y0155787D01*
X0132800Y0156217D01*
X0132404Y0157173D01*
X0131673Y0157904D01*
X0130717Y0158300D01*
X0129683Y0158300D01*
X0129113Y0158064D01*
X0128473Y0158704D01*
X0128062Y0158875D01*
X0130500Y0161313D01*
X0130500Y0199523D01*
X0130804Y0199827D01*
X0131200Y0200783D01*
X0131200Y0201817D01*
X0130804Y0202773D01*
X0130073Y0203504D01*
X0129117Y0203900D01*
X0128083Y0203900D01*
X0127127Y0203504D01*
X0126396Y0202773D01*
X0126000Y0201817D01*
X0126000Y0200783D01*
X0126396Y0199827D01*
X0126700Y0199523D01*
X0126700Y0185176D01*
X0125917Y0185500D01*
X0125487Y0185500D01*
X0107943Y0203044D01*
X0108000Y0203183D01*
X0108000Y0204217D01*
X0107604Y0205173D01*
X0106873Y0205904D01*
X0105917Y0206300D01*
X0104883Y0206300D01*
X0103927Y0205904D01*
X0103196Y0205173D01*
X0102800Y0204217D01*
X0102800Y0203183D01*
X0103196Y0202227D01*
X0103927Y0201496D01*
X0104251Y0201362D01*
X0104613Y0201000D01*
X0122800Y0182813D01*
X0122800Y0182383D01*
X0123196Y0181427D01*
X0123500Y0181123D01*
X0123500Y0174087D01*
X0056300Y0106887D01*
X0056300Y0069396D01*
X0056180Y0069396D01*
X0053192Y0066409D01*
X0053192Y0062184D01*
X0056080Y0059296D01*
X0053192Y0056409D01*
X0053192Y0054595D01*
X0042500Y0065287D01*
X0042500Y0090723D01*
X0042804Y0091027D01*
X0043200Y0091983D01*
X0043200Y0093017D01*
X0042804Y0093973D01*
X0042073Y0094704D01*
X0041117Y0095100D01*
X0040083Y0095100D01*
X0039127Y0094704D01*
X0038396Y0093973D01*
X0038599Y0090824D02*
X0030600Y0090824D01*
X0030600Y0089226D02*
X0038700Y0089226D01*
X0038700Y0087627D02*
X0030600Y0087627D01*
X0030600Y0086029D02*
X0038700Y0086029D01*
X0038700Y0084430D02*
X0030600Y0084430D01*
X0030600Y0082832D02*
X0038700Y0082832D01*
X0038700Y0081233D02*
X0030600Y0081233D01*
X0030600Y0079634D02*
X0038700Y0079634D01*
X0038700Y0078036D02*
X0030600Y0078036D01*
X0030600Y0076437D02*
X0038700Y0076437D01*
X0038700Y0074839D02*
X0030600Y0074839D01*
X0030600Y0073240D02*
X0038700Y0073240D01*
X0038700Y0071642D02*
X0030600Y0071642D01*
X0030600Y0070043D02*
X0038700Y0070043D01*
X0038700Y0068445D02*
X0030600Y0068445D01*
X0030600Y0066846D02*
X0038700Y0066846D01*
X0038700Y0065248D02*
X0030600Y0065248D01*
X0030600Y0063649D02*
X0038764Y0063649D01*
X0040362Y0062051D02*
X0030600Y0062051D01*
X0030600Y0060452D02*
X0041961Y0060452D01*
X0043559Y0058854D02*
X0030600Y0058854D01*
X0030600Y0057255D02*
X0045158Y0057255D01*
X0046756Y0055657D02*
X0030600Y0055657D01*
X0030600Y0054058D02*
X0048355Y0054058D01*
X0049953Y0052460D02*
X0030600Y0052460D01*
X0030600Y0050861D02*
X0051552Y0050861D01*
X0053150Y0049263D02*
X0030600Y0049263D01*
X0030600Y0047664D02*
X0054448Y0047664D01*
X0053192Y0046066D02*
X0030600Y0046066D01*
X0030600Y0044467D02*
X0053192Y0044467D01*
X0053192Y0042869D02*
X0030600Y0042869D01*
X0030600Y0041270D02*
X0054105Y0041270D01*
X0055704Y0039672D02*
X0030600Y0039672D01*
X0030600Y0038073D02*
X0184138Y0038073D01*
X0184136Y0036475D02*
X0030600Y0036475D01*
X0030600Y0034876D02*
X0184134Y0034876D01*
X0184132Y0033278D02*
X0030600Y0033278D01*
X0030600Y0031679D02*
X0184130Y0031679D01*
X0184128Y0030081D02*
X0030600Y0030081D01*
X0030600Y0028482D02*
X0184126Y0028482D01*
X0184123Y0026884D02*
X0030600Y0026884D01*
X0030600Y0025285D02*
X0184121Y0025285D01*
X0184119Y0023687D02*
X0030600Y0023687D01*
X0030600Y0022088D02*
X0184117Y0022088D01*
X0184115Y0020490D02*
X0030600Y0020490D01*
X0030600Y0018891D02*
X0184113Y0018891D01*
X0184111Y0017293D02*
X0030600Y0017293D01*
X0030600Y0015694D02*
X0184109Y0015694D01*
X0184107Y0014096D02*
X0030600Y0014096D01*
X0030600Y0012497D02*
X0184105Y0012497D01*
X0184104Y0012100D02*
X0030600Y0012100D01*
X0030600Y0238961D01*
X0184397Y0238961D01*
X0184104Y0012100D01*
X0184140Y0039672D02*
X0070880Y0039672D01*
X0072479Y0041270D02*
X0184142Y0041270D01*
X0184144Y0042869D02*
X0073392Y0042869D01*
X0073392Y0044467D02*
X0184146Y0044467D01*
X0184148Y0046066D02*
X0073392Y0046066D01*
X0072136Y0047664D02*
X0184150Y0047664D01*
X0184152Y0049263D02*
X0070538Y0049263D01*
X0072070Y0050861D02*
X0184154Y0050861D01*
X0184156Y0052460D02*
X0073392Y0052460D01*
X0073392Y0054058D02*
X0184159Y0054058D01*
X0184161Y0055657D02*
X0073392Y0055657D01*
X0072545Y0057255D02*
X0111368Y0057255D01*
X0110759Y0058854D02*
X0070947Y0058854D01*
X0071661Y0060452D02*
X0109161Y0060452D01*
X0108300Y0062051D02*
X0073259Y0062051D01*
X0073392Y0063649D02*
X0108300Y0063649D01*
X0108300Y0065248D02*
X0073392Y0065248D01*
X0072954Y0066846D02*
X0108300Y0066846D01*
X0108300Y0068445D02*
X0071356Y0068445D01*
X0065229Y0068445D02*
X0061356Y0068445D01*
X0060100Y0070043D02*
X0108300Y0070043D01*
X0108300Y0071642D02*
X0060100Y0071642D01*
X0060100Y0073240D02*
X0108300Y0073240D01*
X0108300Y0074839D02*
X0060100Y0074839D01*
X0060100Y0076437D02*
X0108300Y0076437D01*
X0108300Y0078036D02*
X0060100Y0078036D01*
X0060100Y0079634D02*
X0108300Y0079634D01*
X0108300Y0081233D02*
X0060100Y0081233D01*
X0060100Y0082832D02*
X0108300Y0082832D01*
X0108300Y0084430D02*
X0060100Y0084430D01*
X0060100Y0086029D02*
X0108300Y0086029D01*
X0108300Y0087627D02*
X0060100Y0087627D01*
X0060100Y0089226D02*
X0108300Y0089226D01*
X0108300Y0090824D02*
X0060100Y0090824D01*
X0060100Y0092423D02*
X0108300Y0092423D01*
X0108300Y0094021D02*
X0060100Y0094021D01*
X0060100Y0095620D02*
X0088203Y0095620D01*
X0087996Y0095827D02*
X0088727Y0095096D01*
X0089683Y0094700D01*
X0090717Y0094700D01*
X0091673Y0095096D01*
X0092404Y0095827D01*
X0092800Y0096783D01*
X0092800Y0097817D01*
X0092404Y0098773D01*
X0091673Y0099504D01*
X0090717Y0099900D01*
X0090287Y0099900D01*
X0088800Y0101387D01*
X0088800Y0101817D01*
X0088404Y0102773D01*
X0087673Y0103504D01*
X0086717Y0103900D01*
X0085683Y0103900D01*
X0084727Y0103504D01*
X0083996Y0102773D01*
X0083600Y0101817D01*
X0083600Y0100783D01*
X0083996Y0099827D01*
X0084727Y0099096D01*
X0085683Y0098700D01*
X0086113Y0098700D01*
X0087600Y0097213D01*
X0087600Y0096783D01*
X0087996Y0095827D01*
X0087595Y0097218D02*
X0060100Y0097218D01*
X0060100Y0098817D02*
X0085401Y0098817D01*
X0083752Y0100415D02*
X0060100Y0100415D01*
X0060100Y0102014D02*
X0083681Y0102014D01*
X0084988Y0103612D02*
X0060100Y0103612D01*
X0060100Y0105211D02*
X0104300Y0105211D01*
X0104300Y0106809D02*
X0061596Y0106809D01*
X0063195Y0108408D02*
X0104300Y0108408D01*
X0104300Y0110006D02*
X0064793Y0110006D01*
X0066392Y0111605D02*
X0104300Y0111605D01*
X0104300Y0113203D02*
X0067990Y0113203D01*
X0069589Y0114802D02*
X0104300Y0114802D01*
X0104300Y0116400D02*
X0071187Y0116400D01*
X0072786Y0117999D02*
X0104300Y0117999D01*
X0104300Y0119597D02*
X0074384Y0119597D01*
X0075983Y0121196D02*
X0104300Y0121196D01*
X0104300Y0122794D02*
X0077581Y0122794D01*
X0079180Y0124393D02*
X0104300Y0124393D01*
X0104300Y0125991D02*
X0080778Y0125991D01*
X0082377Y0127590D02*
X0104300Y0127590D01*
X0104300Y0129188D02*
X0083975Y0129188D01*
X0085574Y0130787D02*
X0104300Y0130787D01*
X0104300Y0132385D02*
X0087172Y0132385D01*
X0088771Y0133984D02*
X0104300Y0133984D01*
X0104300Y0135582D02*
X0090369Y0135582D01*
X0091968Y0137181D02*
X0104300Y0137181D01*
X0104300Y0138779D02*
X0093566Y0138779D01*
X0095165Y0140378D02*
X0104300Y0140378D01*
X0104300Y0141976D02*
X0096763Y0141976D01*
X0098362Y0143575D02*
X0104300Y0143575D01*
X0104300Y0145173D02*
X0099960Y0145173D01*
X0101559Y0146772D02*
X0104300Y0146772D01*
X0104253Y0148370D02*
X0103157Y0148370D01*
X0100981Y0151568D02*
X0030600Y0151568D01*
X0030600Y0153166D02*
X0102579Y0153166D01*
X0104178Y0154765D02*
X0030600Y0154765D01*
X0030600Y0156363D02*
X0105776Y0156363D01*
X0107375Y0157962D02*
X0030600Y0157962D01*
X0030600Y0159560D02*
X0108973Y0159560D01*
X0110572Y0161159D02*
X0030600Y0161159D01*
X0030600Y0162757D02*
X0112170Y0162757D01*
X0113769Y0164356D02*
X0030600Y0164356D01*
X0030600Y0165954D02*
X0115367Y0165954D01*
X0116966Y0167553D02*
X0030600Y0167553D01*
X0030600Y0169151D02*
X0118564Y0169151D01*
X0120163Y0170750D02*
X0030600Y0170750D01*
X0030600Y0172348D02*
X0121761Y0172348D01*
X0123360Y0173947D02*
X0030600Y0173947D01*
X0030600Y0175545D02*
X0123500Y0175545D01*
X0123500Y0177144D02*
X0030600Y0177144D01*
X0030600Y0178742D02*
X0123500Y0178742D01*
X0123500Y0180341D02*
X0030600Y0180341D01*
X0030600Y0181939D02*
X0122984Y0181939D01*
X0122075Y0183538D02*
X0030600Y0183538D01*
X0030600Y0185136D02*
X0120477Y0185136D01*
X0118878Y0186735D02*
X0030600Y0186735D01*
X0030600Y0188333D02*
X0117280Y0188333D01*
X0115681Y0189932D02*
X0030600Y0189932D01*
X0030600Y0191530D02*
X0114083Y0191530D01*
X0112484Y0193129D02*
X0030600Y0193129D01*
X0030600Y0194727D02*
X0110886Y0194727D01*
X0109287Y0196326D02*
X0030600Y0196326D01*
X0030600Y0197924D02*
X0107689Y0197924D01*
X0106090Y0199523D02*
X0030600Y0199523D01*
X0030600Y0201121D02*
X0104492Y0201121D01*
X0102992Y0202720D02*
X0030600Y0202720D01*
X0030600Y0204318D02*
X0102842Y0204318D01*
X0103958Y0205917D02*
X0030600Y0205917D01*
X0030600Y0207515D02*
X0184357Y0207515D01*
X0184355Y0205917D02*
X0106842Y0205917D01*
X0107958Y0204318D02*
X0184352Y0204318D01*
X0184350Y0202720D02*
X0130826Y0202720D01*
X0131200Y0201121D02*
X0184348Y0201121D01*
X0184346Y0199523D02*
X0130500Y0199523D01*
X0130500Y0197924D02*
X0171976Y0197924D01*
X0170845Y0196326D02*
X0130500Y0196326D01*
X0130500Y0194727D02*
X0170989Y0194727D01*
X0171500Y0193129D02*
X0130500Y0193129D01*
X0130500Y0191530D02*
X0171500Y0191530D01*
X0171500Y0189932D02*
X0130500Y0189932D01*
X0130500Y0188333D02*
X0171500Y0188333D01*
X0171500Y0186735D02*
X0130500Y0186735D01*
X0130500Y0185136D02*
X0171500Y0185136D01*
X0170551Y0183538D02*
X0130500Y0183538D01*
X0130500Y0181939D02*
X0168952Y0181939D01*
X0167354Y0180341D02*
X0130500Y0180341D01*
X0130500Y0178742D02*
X0165755Y0178742D01*
X0164157Y0177144D02*
X0130500Y0177144D01*
X0130500Y0175545D02*
X0162558Y0175545D01*
X0160960Y0173947D02*
X0130500Y0173947D01*
X0130500Y0172348D02*
X0159361Y0172348D01*
X0157763Y0170750D02*
X0130500Y0170750D01*
X0130500Y0169151D02*
X0156164Y0169151D01*
X0154566Y0167553D02*
X0130500Y0167553D01*
X0130500Y0165954D02*
X0152967Y0165954D01*
X0151369Y0164356D02*
X0130500Y0164356D01*
X0130500Y0162757D02*
X0149770Y0162757D01*
X0148172Y0161159D02*
X0130346Y0161159D01*
X0128747Y0159560D02*
X0146573Y0159560D01*
X0144975Y0157962D02*
X0131534Y0157962D01*
X0132740Y0156363D02*
X0143376Y0156363D01*
X0141778Y0154765D02*
X0133822Y0154765D01*
X0135421Y0153166D02*
X0140179Y0153166D01*
X0138581Y0151568D02*
X0138006Y0151568D01*
X0140757Y0148370D02*
X0147383Y0148370D01*
X0145785Y0146772D02*
X0139200Y0146772D01*
X0138550Y0145173D02*
X0144186Y0145173D01*
X0142588Y0143575D02*
X0128900Y0143575D01*
X0128900Y0145173D02*
X0134650Y0145173D01*
X0134000Y0146772D02*
X0128900Y0146772D01*
X0128900Y0148370D02*
X0133853Y0148370D01*
X0133200Y0149969D02*
X0128900Y0149969D01*
X0128900Y0151568D02*
X0131645Y0151568D01*
X0129523Y0153166D02*
X0128900Y0153166D01*
X0123373Y0159560D02*
X0114347Y0159560D01*
X0112749Y0157962D02*
X0122700Y0157962D01*
X0122700Y0156363D02*
X0111150Y0156363D01*
X0109552Y0154765D02*
X0122700Y0154765D01*
X0122700Y0153166D02*
X0107953Y0153166D01*
X0112406Y0151568D02*
X0122700Y0151568D01*
X0122700Y0149969D02*
X0112800Y0149969D01*
X0112147Y0148370D02*
X0122700Y0148370D01*
X0122700Y0146772D02*
X0112100Y0146772D01*
X0112100Y0145173D02*
X0122700Y0145173D01*
X0122700Y0143575D02*
X0112100Y0143575D01*
X0112100Y0141976D02*
X0122700Y0141976D01*
X0122700Y0140378D02*
X0112100Y0140378D01*
X0112100Y0138779D02*
X0122700Y0138779D01*
X0122700Y0137181D02*
X0112100Y0137181D01*
X0112100Y0135582D02*
X0122700Y0135582D01*
X0122700Y0133984D02*
X0112100Y0133984D01*
X0112100Y0132385D02*
X0122700Y0132385D01*
X0122700Y0130787D02*
X0112100Y0130787D01*
X0112100Y0129188D02*
X0122700Y0129188D01*
X0122700Y0127590D02*
X0112100Y0127590D01*
X0112100Y0125991D02*
X0122700Y0125991D01*
X0122700Y0124393D02*
X0112100Y0124393D01*
X0112100Y0122794D02*
X0122700Y0122794D01*
X0122700Y0121196D02*
X0112100Y0121196D01*
X0112100Y0119597D02*
X0122700Y0119597D01*
X0122700Y0117999D02*
X0112100Y0117999D01*
X0112100Y0116400D02*
X0122700Y0116400D01*
X0122700Y0114802D02*
X0112100Y0114802D01*
X0112100Y0113203D02*
X0122700Y0113203D01*
X0122700Y0111605D02*
X0112100Y0111605D01*
X0112100Y0110006D02*
X0122700Y0110006D01*
X0122700Y0108408D02*
X0112100Y0108408D01*
X0112100Y0106809D02*
X0122700Y0106809D01*
X0122700Y0105211D02*
X0112100Y0105211D01*
X0112100Y0103612D02*
X0122700Y0103612D01*
X0122700Y0102014D02*
X0112100Y0102014D01*
X0112100Y0100415D02*
X0122700Y0100415D01*
X0122700Y0098817D02*
X0112100Y0098817D01*
X0112100Y0097218D02*
X0122700Y0097218D01*
X0122700Y0095620D02*
X0112100Y0095620D01*
X0112100Y0094021D02*
X0122700Y0094021D01*
X0122700Y0092423D02*
X0112100Y0092423D01*
X0112100Y0090824D02*
X0122700Y0090824D01*
X0122086Y0089226D02*
X0112100Y0089226D01*
X0112100Y0087627D02*
X0122147Y0087627D01*
X0123772Y0086029D02*
X0112100Y0086029D01*
X0112100Y0084430D02*
X0157900Y0084430D01*
X0157900Y0082832D02*
X0112100Y0082832D01*
X0112100Y0081233D02*
X0157900Y0081233D01*
X0157900Y0079634D02*
X0112100Y0079634D01*
X0112100Y0078036D02*
X0157900Y0078036D01*
X0157900Y0076437D02*
X0112100Y0076437D01*
X0112100Y0074839D02*
X0157900Y0074839D01*
X0157900Y0073240D02*
X0112100Y0073240D01*
X0112100Y0071642D02*
X0157900Y0071642D01*
X0157900Y0070043D02*
X0112100Y0070043D01*
X0112100Y0068445D02*
X0157900Y0068445D01*
X0157900Y0066846D02*
X0112100Y0066846D01*
X0112100Y0065248D02*
X0157900Y0065248D01*
X0157900Y0063649D02*
X0112100Y0063649D01*
X0112936Y0062051D02*
X0157900Y0062051D01*
X0157675Y0060452D02*
X0115525Y0060452D01*
X0116000Y0058854D02*
X0157200Y0058854D01*
X0157768Y0057255D02*
X0115432Y0057255D01*
X0125427Y0086029D02*
X0157900Y0086029D01*
X0157900Y0087627D02*
X0127053Y0087627D01*
X0127114Y0089226D02*
X0157900Y0089226D01*
X0157900Y0090824D02*
X0126500Y0090824D01*
X0126500Y0092423D02*
X0157900Y0092423D01*
X0157900Y0094021D02*
X0126500Y0094021D01*
X0126500Y0095620D02*
X0156393Y0095620D01*
X0154795Y0097218D02*
X0126500Y0097218D01*
X0126500Y0098817D02*
X0153196Y0098817D01*
X0151598Y0100415D02*
X0126500Y0100415D01*
X0126500Y0102014D02*
X0149999Y0102014D01*
X0148401Y0103612D02*
X0126500Y0103612D01*
X0126500Y0105211D02*
X0146802Y0105211D01*
X0145204Y0106809D02*
X0126500Y0106809D01*
X0126500Y0108408D02*
X0143605Y0108408D01*
X0142007Y0110006D02*
X0126500Y0110006D01*
X0126500Y0111605D02*
X0140408Y0111605D01*
X0138810Y0113203D02*
X0126500Y0113203D01*
X0126500Y0114802D02*
X0137211Y0114802D01*
X0135613Y0116400D02*
X0126500Y0116400D01*
X0126500Y0117999D02*
X0134014Y0117999D01*
X0132416Y0119597D02*
X0126500Y0119597D01*
X0126500Y0121196D02*
X0130817Y0121196D01*
X0129219Y0122794D02*
X0126500Y0122794D01*
X0126500Y0124393D02*
X0127620Y0124393D01*
X0131396Y0125991D02*
X0184251Y0125991D01*
X0184249Y0124393D02*
X0132994Y0124393D01*
X0134593Y0122794D02*
X0184247Y0122794D01*
X0184245Y0121196D02*
X0136191Y0121196D01*
X0137790Y0119597D02*
X0184243Y0119597D01*
X0184241Y0117999D02*
X0139388Y0117999D01*
X0140987Y0116400D02*
X0184239Y0116400D01*
X0184237Y0114802D02*
X0142585Y0114802D01*
X0144184Y0113203D02*
X0184235Y0113203D01*
X0184233Y0111605D02*
X0145782Y0111605D01*
X0147381Y0110006D02*
X0184231Y0110006D01*
X0184229Y0108408D02*
X0148979Y0108408D01*
X0150578Y0106809D02*
X0184227Y0106809D01*
X0184225Y0105211D02*
X0152176Y0105211D01*
X0153775Y0103612D02*
X0184223Y0103612D01*
X0184220Y0102014D02*
X0155373Y0102014D01*
X0156972Y0100415D02*
X0184218Y0100415D01*
X0184216Y0098817D02*
X0158570Y0098817D01*
X0160169Y0097218D02*
X0184214Y0097218D01*
X0184212Y0095620D02*
X0161700Y0095620D01*
X0161700Y0094021D02*
X0184210Y0094021D01*
X0184208Y0092423D02*
X0161700Y0092423D01*
X0161700Y0090824D02*
X0184206Y0090824D01*
X0184204Y0089226D02*
X0161700Y0089226D01*
X0161700Y0087627D02*
X0184202Y0087627D01*
X0184200Y0086029D02*
X0161700Y0086029D01*
X0161700Y0084430D02*
X0184198Y0084430D01*
X0184196Y0082832D02*
X0161700Y0082832D01*
X0161700Y0081233D02*
X0184194Y0081233D01*
X0184192Y0079634D02*
X0161700Y0079634D01*
X0161700Y0078036D02*
X0184190Y0078036D01*
X0184187Y0076437D02*
X0161700Y0076437D01*
X0161700Y0074839D02*
X0184185Y0074839D01*
X0184183Y0073240D02*
X0161700Y0073240D01*
X0161700Y0071642D02*
X0184181Y0071642D01*
X0184179Y0070043D02*
X0161700Y0070043D01*
X0161700Y0068445D02*
X0184177Y0068445D01*
X0184175Y0066846D02*
X0161700Y0066846D01*
X0161700Y0065248D02*
X0184173Y0065248D01*
X0184171Y0063649D02*
X0161700Y0063649D01*
X0161700Y0062051D02*
X0184169Y0062051D01*
X0184167Y0060452D02*
X0161925Y0060452D01*
X0162400Y0058854D02*
X0184165Y0058854D01*
X0184163Y0057255D02*
X0161832Y0057255D01*
X0184253Y0127590D02*
X0132637Y0127590D01*
X0133575Y0129188D02*
X0184256Y0129188D01*
X0184258Y0130787D02*
X0135174Y0130787D01*
X0136772Y0132385D02*
X0184260Y0132385D01*
X0184262Y0133984D02*
X0138371Y0133984D01*
X0139969Y0135582D02*
X0184264Y0135582D01*
X0184266Y0137181D02*
X0141568Y0137181D01*
X0143166Y0138779D02*
X0184268Y0138779D01*
X0184270Y0140378D02*
X0144765Y0140378D01*
X0146363Y0141976D02*
X0184272Y0141976D01*
X0184274Y0143575D02*
X0147962Y0143575D01*
X0149560Y0145173D02*
X0184276Y0145173D01*
X0184278Y0146772D02*
X0151159Y0146772D01*
X0153747Y0148370D02*
X0184280Y0148370D01*
X0184282Y0149969D02*
X0154400Y0149969D01*
X0154006Y0151568D02*
X0184284Y0151568D01*
X0184286Y0153166D02*
X0145553Y0153166D01*
X0143955Y0151568D02*
X0149594Y0151568D01*
X0148982Y0149969D02*
X0142356Y0149969D01*
X0147152Y0154765D02*
X0184289Y0154765D01*
X0184291Y0156363D02*
X0148750Y0156363D01*
X0150349Y0157962D02*
X0184293Y0157962D01*
X0184295Y0159560D02*
X0151947Y0159560D01*
X0153546Y0161159D02*
X0184297Y0161159D01*
X0184299Y0162757D02*
X0155144Y0162757D01*
X0156743Y0164356D02*
X0184301Y0164356D01*
X0184303Y0165954D02*
X0158341Y0165954D01*
X0159940Y0167553D02*
X0184305Y0167553D01*
X0184307Y0169151D02*
X0161538Y0169151D01*
X0163137Y0170750D02*
X0184309Y0170750D01*
X0184311Y0172348D02*
X0164735Y0172348D01*
X0166334Y0173947D02*
X0184313Y0173947D01*
X0184315Y0175545D02*
X0167932Y0175545D01*
X0169531Y0177144D02*
X0184317Y0177144D01*
X0184319Y0178742D02*
X0171129Y0178742D01*
X0172728Y0180341D02*
X0184322Y0180341D01*
X0184324Y0181939D02*
X0174326Y0181939D01*
X0175300Y0183538D02*
X0184326Y0183538D01*
X0184328Y0185136D02*
X0175300Y0185136D01*
X0175300Y0186735D02*
X0184330Y0186735D01*
X0184332Y0188333D02*
X0175300Y0188333D01*
X0175300Y0189932D02*
X0184334Y0189932D01*
X0184336Y0191530D02*
X0175300Y0191530D01*
X0175300Y0193129D02*
X0184338Y0193129D01*
X0184340Y0194727D02*
X0175811Y0194727D01*
X0175955Y0196326D02*
X0184342Y0196326D01*
X0184344Y0197924D02*
X0174824Y0197924D01*
X0184359Y0209114D02*
X0030600Y0209114D01*
X0030600Y0210712D02*
X0184361Y0210712D01*
X0184363Y0212311D02*
X0030600Y0212311D01*
X0030600Y0213909D02*
X0184365Y0213909D01*
X0184367Y0215508D02*
X0030600Y0215508D01*
X0030600Y0217106D02*
X0034768Y0217106D01*
X0035025Y0217000D02*
X0033408Y0217670D01*
X0032170Y0218908D01*
X0031500Y0220525D01*
X0031500Y0222275D01*
X0032170Y0223892D01*
X0033408Y0225130D01*
X0035025Y0225800D01*
X0042775Y0225800D01*
X0044392Y0225130D01*
X0045630Y0223892D01*
X0046300Y0222275D01*
X0046300Y0220525D01*
X0045630Y0218908D01*
X0044392Y0217670D01*
X0042775Y0217000D01*
X0035025Y0217000D01*
X0032372Y0218705D02*
X0030600Y0218705D01*
X0030600Y0220303D02*
X0031592Y0220303D01*
X0031500Y0221902D02*
X0030600Y0221902D01*
X0030600Y0223501D02*
X0032008Y0223501D01*
X0033376Y0225099D02*
X0030600Y0225099D01*
X0030600Y0226698D02*
X0034906Y0226698D01*
X0034776Y0226718D02*
X0035522Y0226600D01*
X0038700Y0226600D01*
X0038700Y0231200D01*
X0039100Y0231200D01*
X0039100Y0231600D01*
X0038700Y0231600D01*
X0038700Y0236200D01*
X0035522Y0236200D01*
X0034776Y0236082D01*
X0034057Y0235848D01*
X0033384Y0235505D01*
X0032773Y0235061D01*
X0032239Y0234527D01*
X0031795Y0233916D01*
X0031452Y0233243D01*
X0031218Y0232524D01*
X0031100Y0231778D01*
X0031100Y0231600D01*
X0038700Y0231600D01*
X0038700Y0231200D01*
X0031100Y0231200D01*
X0031100Y0231022D01*
X0031218Y0230276D01*
X0031452Y0229557D01*
X0031795Y0228884D01*
X0032239Y0228273D01*
X0032773Y0227739D01*
X0033384Y0227295D01*
X0034057Y0226952D01*
X0034776Y0226718D01*
X0032222Y0228296D02*
X0030600Y0228296D01*
X0030600Y0229895D02*
X0031342Y0229895D01*
X0030600Y0231493D02*
X0038700Y0231493D01*
X0039100Y0231493D02*
X0184388Y0231493D01*
X0184385Y0229895D02*
X0046458Y0229895D01*
X0046348Y0229557D02*
X0046582Y0230276D01*
X0046700Y0231022D01*
X0046700Y0231200D01*
X0039100Y0231200D01*
X0039100Y0226600D01*
X0042278Y0226600D01*
X0043024Y0226718D01*
X0043743Y0226952D01*
X0044416Y0227295D01*
X0045027Y0227739D01*
X0045561Y0228273D01*
X0046005Y0228884D01*
X0046348Y0229557D01*
X0045578Y0228296D02*
X0184383Y0228296D01*
X0184381Y0226698D02*
X0042894Y0226698D01*
X0044423Y0225099D02*
X0184379Y0225099D01*
X0184377Y0223501D02*
X0045792Y0223501D01*
X0046300Y0221902D02*
X0184375Y0221902D01*
X0184373Y0220303D02*
X0046208Y0220303D01*
X0045428Y0218705D02*
X0184371Y0218705D01*
X0184369Y0217106D02*
X0043032Y0217106D01*
X0039100Y0226698D02*
X0038700Y0226698D01*
X0038700Y0228296D02*
X0039100Y0228296D01*
X0039100Y0229895D02*
X0038700Y0229895D01*
X0039100Y0231600D02*
X0046700Y0231600D01*
X0046700Y0231778D01*
X0046582Y0232524D01*
X0046348Y0233243D01*
X0046005Y0233916D01*
X0045561Y0234527D01*
X0045027Y0235061D01*
X0044416Y0235505D01*
X0043743Y0235848D01*
X0043024Y0236082D01*
X0042278Y0236200D01*
X0039100Y0236200D01*
X0039100Y0231600D01*
X0039100Y0233092D02*
X0038700Y0233092D01*
X0038700Y0234690D02*
X0039100Y0234690D01*
X0045398Y0234690D02*
X0184392Y0234690D01*
X0184390Y0233092D02*
X0046397Y0233092D01*
X0032402Y0234690D02*
X0030600Y0234690D01*
X0030600Y0233092D02*
X0031403Y0233092D01*
X0030600Y0236289D02*
X0184394Y0236289D01*
X0184396Y0237887D02*
X0030600Y0237887D01*
X0030600Y0149969D02*
X0054753Y0149969D01*
X0056180Y0151396D02*
X0053192Y0148409D01*
X0053192Y0144184D01*
X0056080Y0141296D01*
X0053192Y0138409D01*
X0053192Y0134184D01*
X0056080Y0131296D01*
X0053192Y0128409D01*
X0053192Y0124184D01*
X0056180Y0121196D01*
X0060405Y0121196D01*
X0063292Y0124084D01*
X0066180Y0121196D01*
X0070405Y0121196D01*
X0073392Y0124184D01*
X0073392Y0128205D01*
X0081487Y0136300D01*
X0081917Y0136300D01*
X0082873Y0136696D01*
X0083604Y0137427D01*
X0084000Y0138383D01*
X0084000Y0139417D01*
X0083604Y0140373D01*
X0082873Y0141104D01*
X0081917Y0141500D01*
X0080883Y0141500D01*
X0079927Y0141104D01*
X0079196Y0140373D01*
X0078800Y0139417D01*
X0078800Y0138987D01*
X0070807Y0130994D01*
X0070505Y0131296D01*
X0073392Y0134184D01*
X0073392Y0138409D01*
X0070505Y0141296D01*
X0073392Y0144184D01*
X0073392Y0148409D01*
X0070405Y0151396D01*
X0066180Y0151396D01*
X0063292Y0148509D01*
X0060405Y0151396D01*
X0056180Y0151396D01*
X0053192Y0148370D02*
X0030600Y0148370D01*
X0030600Y0146772D02*
X0053192Y0146772D01*
X0053192Y0145173D02*
X0030600Y0145173D01*
X0030600Y0143575D02*
X0053801Y0143575D01*
X0055399Y0141976D02*
X0030600Y0141976D01*
X0030600Y0140378D02*
X0055162Y0140378D01*
X0053563Y0138779D02*
X0030600Y0138779D01*
X0030600Y0137181D02*
X0053192Y0137181D01*
X0053192Y0135582D02*
X0030600Y0135582D01*
X0030600Y0133984D02*
X0053392Y0133984D01*
X0054990Y0132385D02*
X0030600Y0132385D01*
X0030600Y0130787D02*
X0055570Y0130787D01*
X0053972Y0129188D02*
X0030600Y0129188D01*
X0030600Y0127590D02*
X0053192Y0127590D01*
X0053192Y0125991D02*
X0030600Y0125991D01*
X0030600Y0124393D02*
X0053192Y0124393D01*
X0054581Y0122794D02*
X0030600Y0122794D01*
X0030600Y0121196D02*
X0070609Y0121196D01*
X0072003Y0122794D02*
X0072207Y0122794D01*
X0073392Y0124393D02*
X0073806Y0124393D01*
X0073392Y0125991D02*
X0075404Y0125991D01*
X0077003Y0127590D02*
X0073392Y0127590D01*
X0074375Y0129188D02*
X0078601Y0129188D01*
X0080200Y0130787D02*
X0075974Y0130787D01*
X0077572Y0132385D02*
X0081798Y0132385D01*
X0083397Y0133984D02*
X0079171Y0133984D01*
X0080769Y0135582D02*
X0084995Y0135582D01*
X0086594Y0137181D02*
X0083358Y0137181D01*
X0084000Y0138779D02*
X0088192Y0138779D01*
X0089791Y0140378D02*
X0083599Y0140378D01*
X0079201Y0140378D02*
X0071423Y0140378D01*
X0071185Y0141976D02*
X0091389Y0141976D01*
X0092988Y0143575D02*
X0072783Y0143575D01*
X0073392Y0145173D02*
X0094586Y0145173D01*
X0096185Y0146772D02*
X0073392Y0146772D01*
X0073392Y0148370D02*
X0097783Y0148370D01*
X0099382Y0149969D02*
X0071832Y0149969D01*
X0064753Y0149969D02*
X0061832Y0149969D01*
X0073021Y0138779D02*
X0078592Y0138779D01*
X0076994Y0137181D02*
X0073392Y0137181D01*
X0073392Y0135582D02*
X0075395Y0135582D01*
X0073797Y0133984D02*
X0073192Y0133984D01*
X0072198Y0132385D02*
X0071594Y0132385D01*
X0064581Y0122794D02*
X0062003Y0122794D01*
X0067412Y0117999D02*
X0030600Y0117999D01*
X0030600Y0119597D02*
X0069010Y0119597D01*
X0065813Y0116400D02*
X0030600Y0116400D01*
X0030600Y0114802D02*
X0064215Y0114802D01*
X0062616Y0113203D02*
X0030600Y0113203D01*
X0030600Y0111605D02*
X0061018Y0111605D01*
X0059419Y0110006D02*
X0030600Y0110006D01*
X0030600Y0108408D02*
X0057821Y0108408D01*
X0056300Y0106809D02*
X0030600Y0106809D01*
X0030600Y0105211D02*
X0056300Y0105211D01*
X0056300Y0103612D02*
X0030600Y0103612D01*
X0030600Y0102014D02*
X0056300Y0102014D01*
X0056300Y0100415D02*
X0030600Y0100415D01*
X0030600Y0098817D02*
X0056300Y0098817D01*
X0056300Y0097218D02*
X0030600Y0097218D01*
X0030600Y0095620D02*
X0056300Y0095620D01*
X0056300Y0094021D02*
X0042756Y0094021D01*
X0043200Y0092423D02*
X0056300Y0092423D01*
X0056300Y0090824D02*
X0042601Y0090824D01*
X0042500Y0089226D02*
X0056300Y0089226D01*
X0056300Y0087627D02*
X0042500Y0087627D01*
X0042500Y0086029D02*
X0056300Y0086029D01*
X0056300Y0084430D02*
X0042500Y0084430D01*
X0042500Y0082832D02*
X0056300Y0082832D01*
X0056300Y0081233D02*
X0042500Y0081233D01*
X0042500Y0079634D02*
X0056300Y0079634D01*
X0056300Y0078036D02*
X0042500Y0078036D01*
X0042500Y0076437D02*
X0056300Y0076437D01*
X0056300Y0074839D02*
X0042500Y0074839D01*
X0042500Y0073240D02*
X0056300Y0073240D01*
X0056300Y0071642D02*
X0042500Y0071642D01*
X0042500Y0070043D02*
X0056300Y0070043D01*
X0055229Y0068445D02*
X0042500Y0068445D01*
X0042500Y0066846D02*
X0053630Y0066846D01*
X0053192Y0065248D02*
X0042539Y0065248D01*
X0044138Y0063649D02*
X0053192Y0063649D01*
X0053325Y0062051D02*
X0045736Y0062051D01*
X0047335Y0060452D02*
X0054923Y0060452D01*
X0055637Y0058854D02*
X0048933Y0058854D01*
X0050532Y0057255D02*
X0054039Y0057255D01*
X0053192Y0055657D02*
X0052130Y0055657D01*
X0062954Y0066846D02*
X0063630Y0066846D01*
X0064105Y0041270D02*
X0062479Y0041270D01*
X0060880Y0039672D02*
X0065704Y0039672D01*
X0092197Y0095620D02*
X0108300Y0095620D01*
X0108300Y0097218D02*
X0092800Y0097218D01*
X0092360Y0098817D02*
X0104206Y0098817D01*
X0103600Y0100415D02*
X0089772Y0100415D01*
X0088719Y0102014D02*
X0104037Y0102014D01*
X0104300Y0103612D02*
X0087412Y0103612D01*
X0108194Y0098817D02*
X0108300Y0098817D01*
X0128900Y0130787D02*
X0128927Y0130787D01*
X0128900Y0132385D02*
X0131398Y0132385D01*
X0132997Y0133984D02*
X0128900Y0133984D01*
X0128900Y0135582D02*
X0134595Y0135582D01*
X0136194Y0137181D02*
X0128900Y0137181D01*
X0128900Y0138779D02*
X0137792Y0138779D01*
X0139391Y0140378D02*
X0128900Y0140378D01*
X0128900Y0141976D02*
X0140989Y0141976D01*
X0126570Y0162757D02*
X0117544Y0162757D01*
X0115946Y0161159D02*
X0124972Y0161159D01*
X0126700Y0164356D02*
X0119143Y0164356D01*
X0120741Y0165954D02*
X0126700Y0165954D01*
X0126700Y0167553D02*
X0122340Y0167553D01*
X0123938Y0169151D02*
X0126700Y0169151D01*
X0126700Y0170750D02*
X0125537Y0170750D01*
X0126700Y0186735D02*
X0124252Y0186735D01*
X0122654Y0188333D02*
X0126700Y0188333D01*
X0126700Y0189932D02*
X0121055Y0189932D01*
X0119457Y0191530D02*
X0126700Y0191530D01*
X0126700Y0193129D02*
X0117858Y0193129D01*
X0116260Y0194727D02*
X0126700Y0194727D01*
X0126700Y0196326D02*
X0114661Y0196326D01*
X0113063Y0197924D02*
X0126700Y0197924D01*
X0126700Y0199523D02*
X0111464Y0199523D01*
X0109866Y0201121D02*
X0126000Y0201121D01*
X0126374Y0202720D02*
X0108267Y0202720D01*
D16*
X0110000Y0184500D03*
X0122400Y0162500D03*
X0100100Y0136100D03*
X0118200Y0129200D03*
X0147400Y0099400D03*
X0161100Y0120600D03*
X0164200Y0066400D03*
X0087200Y0106100D03*
X0078400Y0086400D03*
X0076900Y0129500D03*
X0112400Y0228800D03*
X0165300Y0190000D03*
X0173400Y0174300D03*
X0181100Y0184000D03*
X0050800Y0232200D03*
M02*
