G75*
%MOIN*%
%OFA0B0*%
%FSLAX25Y25*%
%IPPOS*%
%LPD*%
%AMOC8*
5,1,8,0,0,1.08239X$1,22.5*
%
%ADD10C,0.00000*%
%ADD11R,0.05118X0.05906*%
%ADD12R,0.05906X0.05118*%
%ADD13R,0.03150X0.03150*%
%ADD14C,0.06000*%
%ADD15R,0.13000X0.04000*%
%ADD16OC8,0.07400*%
%ADD17R,0.05906X0.03150*%
%ADD18R,0.03150X0.05906*%
%ADD19C,0.03937*%
%ADD20C,0.01000*%
%ADD21C,0.03600*%
%ADD22C,0.01600*%
%ADD23C,0.04134*%
%ADD24C,0.01200*%
%ADD25C,0.02400*%
D10*
X0027800Y0009300D02*
X0027800Y0241761D01*
X0177501Y0241761D01*
X0177501Y0009300D01*
X0027800Y0009300D01*
D11*
X0161560Y0075800D03*
X0169040Y0075800D03*
D12*
X0169800Y0107060D03*
X0169800Y0114540D03*
X0133300Y0094040D03*
X0133300Y0086560D03*
X0120300Y0096560D03*
X0120300Y0104040D03*
X0109800Y0106060D03*
X0109800Y0113540D03*
X0115300Y0082540D03*
X0115300Y0075060D03*
X0170300Y0176060D03*
X0170300Y0183540D03*
X0131300Y0193060D03*
X0131300Y0200540D03*
X0131300Y0209560D03*
X0131300Y0217040D03*
X0062300Y0191040D03*
X0062300Y0183560D03*
X0054800Y0183560D03*
X0054800Y0191040D03*
D13*
X0171300Y0165753D03*
X0171300Y0159847D03*
X0171800Y0099753D03*
X0171800Y0093847D03*
X0171900Y0087553D03*
X0171900Y0081647D03*
D14*
X0156800Y0196300D02*
X0150800Y0196300D01*
X0150800Y0206300D02*
X0156800Y0206300D01*
D15*
X0155800Y0165800D03*
X0145800Y0155800D03*
X0155800Y0145800D03*
X0145800Y0135800D03*
X0155800Y0125800D03*
X0145800Y0115800D03*
X0155800Y0105800D03*
X0145800Y0095800D03*
X0155800Y0085800D03*
X0145800Y0075800D03*
X0155800Y0065800D03*
X0145800Y0055800D03*
X0155800Y0045800D03*
X0145800Y0035800D03*
X0155800Y0025800D03*
X0095800Y0035800D03*
X0085800Y0025800D03*
X0085800Y0045800D03*
X0095800Y0055800D03*
X0085800Y0065800D03*
X0095800Y0075800D03*
X0085800Y0085800D03*
X0095800Y0095800D03*
X0085800Y0105800D03*
X0095800Y0115800D03*
X0085800Y0125800D03*
X0095800Y0135800D03*
X0085800Y0145800D03*
X0095800Y0155800D03*
X0085800Y0165800D03*
D16*
X0068292Y0146296D03*
X0068292Y0136296D03*
X0068292Y0126296D03*
X0058292Y0126296D03*
X0058292Y0136296D03*
X0058292Y0146296D03*
X0058292Y0064296D03*
X0058292Y0054296D03*
X0058292Y0044296D03*
X0068292Y0044296D03*
X0068292Y0054296D03*
X0068292Y0064296D03*
D17*
X0072284Y0191143D03*
X0072284Y0195867D03*
X0072284Y0200591D03*
X0072284Y0205316D03*
X0072284Y0210040D03*
X0072284Y0214765D03*
X0072284Y0219489D03*
X0072284Y0224213D03*
X0115591Y0224213D03*
X0115591Y0219489D03*
X0115591Y0214765D03*
X0115591Y0210040D03*
X0115591Y0205316D03*
X0115591Y0200591D03*
X0115591Y0195867D03*
X0115591Y0191143D03*
D18*
X0105749Y0182284D03*
X0101024Y0182284D03*
X0096300Y0182284D03*
X0091576Y0182284D03*
X0086851Y0182284D03*
X0082127Y0182284D03*
D19*
X0071300Y0181300D03*
X0116576Y0181300D03*
D20*
X0131550Y0179300D02*
X0131300Y0193060D01*
X0131300Y0200540D02*
X0131550Y0200925D01*
X0131550Y0203300D01*
X0131550Y0205925D01*
X0131300Y0209560D01*
X0121111Y0219489D02*
X0121800Y0232800D01*
X0121111Y0219489D02*
X0115591Y0219489D01*
X0115550Y0219300D01*
X0109300Y0219300D01*
X0085550Y0195550D01*
X0073050Y0195550D01*
X0072284Y0195867D01*
X0072284Y0200591D02*
X0066300Y0200800D01*
X0062300Y0198300D01*
X0062300Y0191040D01*
X0054800Y0191040D01*
X0054800Y0183560D02*
X0054100Y0183000D01*
X0051400Y0183000D01*
X0041500Y0173100D01*
X0041500Y0116400D01*
X0087800Y0069600D01*
X0092800Y0069600D01*
X0095500Y0066900D01*
X0095500Y0056100D01*
X0095800Y0055800D01*
X0085800Y0065800D02*
X0085600Y0066000D01*
X0085600Y0067800D01*
X0035800Y0117600D01*
X0035800Y0185800D01*
X0059500Y0205500D01*
X0072100Y0205500D01*
X0072284Y0205316D01*
X0082127Y0182284D02*
X0081800Y0181800D01*
X0081800Y0176800D01*
X0086800Y0171800D01*
X0139300Y0171800D01*
X0144800Y0161800D01*
X0164300Y0161800D01*
X0164300Y0181800D01*
X0166800Y0184300D01*
X0169300Y0184300D01*
X0170300Y0183540D01*
X0170300Y0176060D02*
X0170200Y0175800D01*
X0170200Y0166853D01*
X0171300Y0165753D01*
X0155800Y0165900D02*
X0155800Y0165800D01*
X0155800Y0165900D02*
X0154000Y0167700D01*
X0154000Y0195600D01*
X0153800Y0196300D01*
X0154300Y0187300D02*
X0159800Y0187300D01*
X0135050Y0175800D02*
X0131550Y0179300D01*
X0156800Y0139300D02*
X0166800Y0129300D01*
X0166800Y0121800D01*
X0156800Y0111800D01*
X0155800Y0106500D02*
X0155800Y0105800D01*
X0155800Y0106500D02*
X0144100Y0106500D01*
X0120700Y0129900D01*
X0118900Y0129900D01*
X0118050Y0138050D02*
X0105550Y0125550D01*
X0086800Y0125550D01*
X0085800Y0125800D01*
X0083800Y0135800D02*
X0083300Y0136300D01*
X0083000Y0136200D01*
X0081800Y0135800D01*
X0069900Y0112200D02*
X0112200Y0112200D01*
X0109800Y0113540D01*
X0111700Y0106500D02*
X0109800Y0106060D01*
X0111700Y0106500D02*
X0086500Y0106500D01*
X0085800Y0105800D01*
X0096400Y0096600D02*
X0095800Y0095800D01*
X0096400Y0096600D02*
X0121600Y0096600D01*
X0120300Y0096560D01*
X0125200Y0092100D02*
X0128800Y0095700D01*
X0128800Y0097500D01*
X0129700Y0098400D01*
X0143200Y0098400D01*
X0145800Y0095800D01*
X0147700Y0090300D02*
X0140500Y0090300D01*
X0136900Y0093900D01*
X0133300Y0093900D01*
X0133300Y0094040D01*
X0133300Y0086700D02*
X0133300Y0086560D01*
X0133300Y0086700D02*
X0119800Y0086700D01*
X0118900Y0087600D01*
X0088300Y0087600D01*
X0086500Y0085800D01*
X0085800Y0085800D01*
X0088300Y0092100D02*
X0125200Y0092100D01*
X0122500Y0102900D02*
X0120300Y0104040D01*
X0122500Y0102900D02*
X0147700Y0102900D01*
X0151300Y0099300D01*
X0153100Y0099300D01*
X0161200Y0091200D01*
X0164800Y0089400D02*
X0161200Y0085800D01*
X0155800Y0085800D01*
X0161200Y0075900D02*
X0161560Y0075800D01*
X0161200Y0075900D02*
X0145900Y0075900D01*
X0145800Y0075800D01*
X0146800Y0081800D02*
X0139300Y0081800D01*
X0131800Y0077300D01*
X0122800Y0060800D02*
X0123300Y0060300D01*
X0123300Y0056300D01*
X0122800Y0055800D01*
X0122800Y0055300D01*
X0115300Y0075060D02*
X0115300Y0075900D01*
X0096400Y0075900D01*
X0095800Y0075800D01*
X0088300Y0092100D02*
X0073500Y0097900D01*
X0073500Y0107300D01*
X0074300Y0107600D01*
X0073600Y0107600D01*
X0078675Y0081925D02*
X0044925Y0116175D01*
X0044925Y0171800D01*
X0078675Y0081925D02*
X0114925Y0081925D01*
X0115300Y0082540D01*
X0122300Y0111300D02*
X0119800Y0113800D01*
X0122300Y0111300D02*
X0123300Y0111300D01*
X0134200Y0124500D02*
X0145000Y0135300D01*
X0145800Y0135800D01*
X0165900Y0113500D02*
X0165000Y0112000D01*
X0164800Y0108300D01*
X0164800Y0089400D01*
X0167800Y0093300D02*
X0167800Y0093800D01*
X0167900Y0093900D01*
X0172000Y0093900D01*
X0171800Y0093847D01*
X0172000Y0093900D01*
X0171800Y0099753D02*
X0172000Y0100200D01*
X0172000Y0106500D01*
X0169800Y0107060D01*
X0171100Y0113700D02*
X0165900Y0113500D01*
X0169800Y0114540D02*
X0171100Y0113700D01*
X0168800Y0083300D02*
X0168800Y0081300D01*
X0171900Y0081647D02*
X0172000Y0075700D01*
X0170900Y0076000D01*
X0169300Y0075900D01*
X0169040Y0075800D01*
X0169300Y0053050D02*
X0169300Y0045550D01*
X0159300Y0035550D01*
X0146800Y0035550D01*
X0145800Y0035800D01*
X0075700Y0042600D02*
X0072100Y0039000D01*
X0059300Y0064300D02*
X0058292Y0064296D01*
D21*
X0044800Y0068400D03*
X0047600Y0034800D03*
X0075700Y0042600D03*
X0078900Y0055300D03*
X0071800Y0076800D03*
X0073600Y0107600D03*
X0069900Y0112200D03*
X0083000Y0136200D03*
X0118050Y0138050D03*
X0118900Y0129900D03*
X0134200Y0124500D03*
X0156800Y0111800D03*
X0161200Y0091200D03*
X0147700Y0090300D03*
X0146800Y0081800D03*
X0131800Y0077300D03*
X0169300Y0053050D03*
X0156800Y0139300D03*
X0135050Y0175800D03*
X0159800Y0187300D03*
X0149300Y0217800D03*
X0121800Y0232800D03*
X0044925Y0171800D03*
D22*
X0045933Y0174846D02*
X0050978Y0179891D01*
X0051267Y0179601D01*
X0058202Y0179601D01*
X0058242Y0179560D01*
X0058652Y0179323D01*
X0059110Y0179201D01*
X0061820Y0179201D01*
X0061820Y0183080D01*
X0062780Y0183080D01*
X0062780Y0184039D01*
X0067053Y0184039D01*
X0067053Y0186356D01*
X0066930Y0186814D01*
X0066693Y0187224D01*
X0066358Y0187559D01*
X0066328Y0187577D01*
X0066653Y0187901D01*
X0066653Y0194179D01*
X0065833Y0194999D01*
X0064200Y0194999D01*
X0064200Y0197247D01*
X0066814Y0198881D01*
X0067931Y0198842D01*
X0067931Y0198437D01*
X0068139Y0198229D01*
X0067931Y0198022D01*
X0067931Y0193712D01*
X0068139Y0193505D01*
X0067931Y0193297D01*
X0067931Y0188988D01*
X0068752Y0188168D01*
X0072246Y0188168D01*
X0072084Y0187911D01*
X0071861Y0187687D01*
X0071861Y0187651D01*
X0071829Y0187636D01*
X0071724Y0187337D01*
X0071556Y0187069D01*
X0071563Y0187034D01*
X0071536Y0187012D01*
X0071500Y0186698D01*
X0071396Y0186399D01*
X0071431Y0186325D01*
X0071431Y0186083D01*
X0071389Y0185710D01*
X0071431Y0185657D01*
X0071431Y0184817D01*
X0071389Y0184764D01*
X0071431Y0184391D01*
X0071431Y0184149D01*
X0071396Y0184075D01*
X0071484Y0183822D01*
X0071484Y0181484D01*
X0073822Y0181484D01*
X0074075Y0181396D01*
X0074107Y0181411D01*
X0074135Y0181389D01*
X0074450Y0181424D01*
X0074764Y0181389D01*
X0074792Y0181411D01*
X0074824Y0181396D01*
X0075123Y0181500D01*
X0075437Y0181536D01*
X0075459Y0181563D01*
X0075494Y0181556D01*
X0075762Y0181724D01*
X0076061Y0181829D01*
X0076076Y0181861D01*
X0076112Y0181861D01*
X0076336Y0182084D01*
X0076604Y0182253D01*
X0076612Y0182287D01*
X0076646Y0182295D01*
X0076815Y0182563D01*
X0077039Y0182787D01*
X0077039Y0182800D01*
X0078628Y0182800D01*
X0079152Y0183324D01*
X0079152Y0178752D01*
X0079900Y0178004D01*
X0079900Y0176013D01*
X0084900Y0171013D01*
X0086013Y0169900D01*
X0138177Y0169900D01*
X0142900Y0161312D01*
X0142900Y0161013D01*
X0143265Y0160648D01*
X0143514Y0160195D01*
X0143802Y0160111D01*
X0144013Y0159900D01*
X0144530Y0159900D01*
X0145026Y0159756D01*
X0145288Y0159900D01*
X0165087Y0159900D01*
X0166200Y0161013D01*
X0166200Y0172668D01*
X0166767Y0172101D01*
X0168300Y0172101D01*
X0168300Y0166066D01*
X0168325Y0166041D01*
X0168325Y0163598D01*
X0168899Y0163024D01*
X0168620Y0162862D01*
X0168285Y0162527D01*
X0168048Y0162117D01*
X0167925Y0161659D01*
X0167925Y0159847D01*
X0167925Y0158035D01*
X0168048Y0157578D01*
X0168285Y0157167D01*
X0168620Y0156832D01*
X0169030Y0156595D01*
X0169488Y0156472D01*
X0171300Y0156472D01*
X0173112Y0156472D01*
X0173570Y0156595D01*
X0173980Y0156832D01*
X0174315Y0157167D01*
X0174552Y0157578D01*
X0174675Y0158035D01*
X0174675Y0159847D01*
X0171300Y0159847D01*
X0171300Y0156472D01*
X0171300Y0159847D01*
X0171300Y0159847D01*
X0171300Y0159847D01*
X0167925Y0159847D01*
X0171300Y0159847D01*
X0171300Y0159847D01*
X0170300Y0155800D01*
X0145800Y0155800D01*
X0146000Y0156000D02*
X0154100Y0156000D01*
X0154100Y0158037D01*
X0153977Y0158495D01*
X0153740Y0158905D01*
X0153405Y0159240D01*
X0152995Y0159477D01*
X0152537Y0159600D01*
X0146000Y0159600D01*
X0146000Y0156000D01*
X0146000Y0155600D01*
X0154100Y0155600D01*
X0154100Y0153563D01*
X0153977Y0153105D01*
X0153740Y0152695D01*
X0153405Y0152360D01*
X0152995Y0152123D01*
X0152537Y0152000D01*
X0146000Y0152000D01*
X0146000Y0155600D01*
X0145600Y0155600D01*
X0145600Y0152000D01*
X0139063Y0152000D01*
X0138605Y0152123D01*
X0138195Y0152360D01*
X0137860Y0152695D01*
X0137623Y0153105D01*
X0137500Y0153563D01*
X0137500Y0155600D01*
X0145600Y0155600D01*
X0145600Y0156000D01*
X0145600Y0159600D01*
X0139063Y0159600D01*
X0138605Y0159477D01*
X0138195Y0159240D01*
X0137860Y0158905D01*
X0137623Y0158495D01*
X0137500Y0158037D01*
X0137500Y0156000D01*
X0145600Y0156000D01*
X0146000Y0156000D01*
X0146000Y0156363D02*
X0145600Y0156363D01*
X0145600Y0154765D02*
X0146000Y0154765D01*
X0146000Y0153166D02*
X0145600Y0153166D01*
X0148720Y0149200D02*
X0147900Y0148380D01*
X0147900Y0143220D01*
X0148720Y0142400D01*
X0155922Y0142400D01*
X0154987Y0142013D01*
X0154087Y0141113D01*
X0153600Y0139937D01*
X0153600Y0138663D01*
X0154087Y0137487D01*
X0154987Y0136587D01*
X0156163Y0136100D01*
X0157313Y0136100D01*
X0164900Y0128513D01*
X0164900Y0122587D01*
X0157313Y0115000D01*
X0156163Y0115000D01*
X0154987Y0114513D01*
X0154087Y0113613D01*
X0153600Y0112437D01*
X0153600Y0111163D01*
X0154087Y0109987D01*
X0154875Y0109200D01*
X0148720Y0109200D01*
X0147920Y0108400D01*
X0144887Y0108400D01*
X0140887Y0112400D01*
X0152880Y0112400D01*
X0153700Y0113220D01*
X0153700Y0118380D01*
X0152880Y0119200D01*
X0138720Y0119200D01*
X0137900Y0118380D01*
X0137900Y0115387D01*
X0121640Y0131647D01*
X0121613Y0131713D01*
X0120713Y0132613D01*
X0119537Y0133100D01*
X0118263Y0133100D01*
X0117087Y0132613D01*
X0116187Y0131713D01*
X0115700Y0130537D01*
X0115700Y0129263D01*
X0116187Y0128087D01*
X0117087Y0127187D01*
X0118263Y0126700D01*
X0119537Y0126700D01*
X0120713Y0127187D01*
X0120719Y0127194D01*
X0142200Y0105713D01*
X0143113Y0104800D01*
X0124653Y0104800D01*
X0124653Y0107179D01*
X0123833Y0107999D01*
X0116767Y0107999D01*
X0115947Y0107179D01*
X0115947Y0100901D01*
X0116548Y0100300D01*
X0115947Y0099699D01*
X0115947Y0098500D01*
X0103580Y0098500D01*
X0102880Y0099200D01*
X0088720Y0099200D01*
X0087900Y0098380D01*
X0087900Y0094297D01*
X0075400Y0099196D01*
X0075400Y0104882D01*
X0075413Y0104887D01*
X0076313Y0105787D01*
X0076800Y0106963D01*
X0076800Y0108237D01*
X0076313Y0109413D01*
X0075425Y0110300D01*
X0105548Y0110300D01*
X0106048Y0109800D01*
X0105447Y0109199D01*
X0105447Y0108400D01*
X0093680Y0108400D01*
X0092880Y0109200D01*
X0078720Y0109200D01*
X0077900Y0108380D01*
X0077900Y0103220D01*
X0078720Y0102400D01*
X0092880Y0102400D01*
X0093700Y0103220D01*
X0093700Y0104600D01*
X0105447Y0104600D01*
X0105447Y0102921D01*
X0106267Y0102101D01*
X0113333Y0102101D01*
X0114153Y0102921D01*
X0114153Y0109199D01*
X0113552Y0109800D01*
X0114153Y0110401D01*
X0114153Y0111800D01*
X0114243Y0111961D01*
X0114153Y0112278D01*
X0114153Y0116679D01*
X0113333Y0117499D01*
X0106267Y0117499D01*
X0105447Y0116679D01*
X0105447Y0114100D01*
X0103700Y0114100D01*
X0103700Y0118380D01*
X0102880Y0119200D01*
X0088720Y0119200D01*
X0087900Y0118380D01*
X0087900Y0114100D01*
X0072525Y0114100D01*
X0071713Y0114913D01*
X0070537Y0115400D01*
X0069263Y0115400D01*
X0068087Y0114913D01*
X0067187Y0114013D01*
X0066700Y0112837D01*
X0066700Y0111563D01*
X0067187Y0110387D01*
X0068087Y0109487D01*
X0069263Y0109000D01*
X0070537Y0109000D01*
X0070753Y0109090D01*
X0070400Y0108237D01*
X0070400Y0106963D01*
X0070887Y0105787D01*
X0071600Y0105075D01*
X0071600Y0098259D01*
X0071444Y0097860D01*
X0071600Y0097503D01*
X0071600Y0097113D01*
X0071903Y0096810D01*
X0072074Y0096418D01*
X0072437Y0096276D01*
X0072713Y0096000D01*
X0073141Y0096000D01*
X0087237Y0090476D01*
X0087513Y0090200D01*
X0087941Y0090200D01*
X0088339Y0090044D01*
X0088697Y0090200D01*
X0125987Y0090200D01*
X0128947Y0093160D01*
X0128947Y0090901D01*
X0129548Y0090300D01*
X0128947Y0089699D01*
X0128947Y0088600D01*
X0120587Y0088600D01*
X0119687Y0089500D01*
X0087513Y0089500D01*
X0087213Y0089200D01*
X0078720Y0089200D01*
X0077900Y0088380D01*
X0077900Y0085418D01*
X0046825Y0116954D01*
X0046825Y0169175D01*
X0047638Y0169987D01*
X0048125Y0171163D01*
X0048125Y0172437D01*
X0047638Y0173613D01*
X0046738Y0174513D01*
X0045933Y0174846D01*
X0046632Y0175545D02*
X0080368Y0175545D01*
X0079900Y0177144D02*
X0048231Y0177144D01*
X0049829Y0178742D02*
X0068528Y0178742D01*
X0068373Y0178898D02*
X0068898Y0178373D01*
X0069515Y0177960D01*
X0070201Y0177676D01*
X0070929Y0177531D01*
X0071116Y0177531D01*
X0071116Y0181116D01*
X0071484Y0181116D01*
X0071484Y0177531D01*
X0071671Y0177531D01*
X0072399Y0177676D01*
X0073085Y0177960D01*
X0073702Y0178373D01*
X0074227Y0178898D01*
X0074640Y0179515D01*
X0074924Y0180201D01*
X0075068Y0180929D01*
X0075068Y0181116D01*
X0071484Y0181116D01*
X0071484Y0181484D01*
X0071116Y0181484D01*
X0071116Y0181116D01*
X0067531Y0181116D01*
X0067531Y0180929D01*
X0067676Y0180201D01*
X0067960Y0179515D01*
X0068373Y0178898D01*
X0067648Y0180341D02*
X0066939Y0180341D01*
X0066930Y0180306D02*
X0067053Y0180764D01*
X0067053Y0183080D01*
X0062780Y0183080D01*
X0062780Y0179201D01*
X0065490Y0179201D01*
X0065948Y0179323D01*
X0066358Y0179560D01*
X0066693Y0179896D01*
X0066930Y0180306D01*
X0067531Y0181484D02*
X0071116Y0181484D01*
X0071116Y0185068D01*
X0070929Y0185068D01*
X0070201Y0184924D01*
X0069515Y0184640D01*
X0068898Y0184227D01*
X0068373Y0183702D01*
X0067960Y0183085D01*
X0067676Y0182399D01*
X0067531Y0181671D01*
X0067531Y0181484D01*
X0067585Y0181939D02*
X0067053Y0181939D01*
X0068263Y0183538D02*
X0062780Y0183538D01*
X0062780Y0181939D02*
X0061820Y0181939D01*
X0061820Y0180341D02*
X0062780Y0180341D01*
X0067053Y0185136D02*
X0071431Y0185136D01*
X0071484Y0183538D02*
X0071116Y0183538D01*
X0071116Y0181939D02*
X0071484Y0181939D01*
X0071484Y0180341D02*
X0071116Y0180341D01*
X0071116Y0178742D02*
X0071484Y0178742D01*
X0074072Y0178742D02*
X0079161Y0178742D01*
X0079152Y0180341D02*
X0074952Y0180341D01*
X0076191Y0181939D02*
X0079152Y0181939D01*
X0081966Y0173947D02*
X0047304Y0173947D01*
X0048125Y0172348D02*
X0083565Y0172348D01*
X0085163Y0170750D02*
X0047954Y0170750D01*
X0046825Y0169151D02*
X0078671Y0169151D01*
X0078720Y0169200D02*
X0077900Y0168380D01*
X0077900Y0163220D01*
X0078720Y0162400D01*
X0092880Y0162400D01*
X0093700Y0163220D01*
X0093700Y0168380D01*
X0092880Y0169200D01*
X0078720Y0169200D01*
X0077900Y0167553D02*
X0046825Y0167553D01*
X0046825Y0165954D02*
X0077900Y0165954D01*
X0077900Y0164356D02*
X0046825Y0164356D01*
X0046825Y0162757D02*
X0078363Y0162757D01*
X0087900Y0158380D02*
X0087900Y0153220D01*
X0088720Y0152400D01*
X0102880Y0152400D01*
X0103700Y0153220D01*
X0103700Y0158380D01*
X0102880Y0159200D01*
X0088720Y0159200D01*
X0087900Y0158380D01*
X0087900Y0157962D02*
X0046825Y0157962D01*
X0046825Y0159560D02*
X0138914Y0159560D01*
X0137500Y0157962D02*
X0103700Y0157962D01*
X0103700Y0156363D02*
X0137500Y0156363D01*
X0137500Y0154765D02*
X0103700Y0154765D01*
X0103646Y0153166D02*
X0137606Y0153166D01*
X0142900Y0161159D02*
X0046825Y0161159D01*
X0046825Y0156363D02*
X0087900Y0156363D01*
X0087900Y0154765D02*
X0046825Y0154765D01*
X0046825Y0153166D02*
X0087954Y0153166D01*
X0092880Y0149200D02*
X0093700Y0148380D01*
X0093700Y0143220D01*
X0092880Y0142400D01*
X0078720Y0142400D01*
X0077900Y0143220D01*
X0077900Y0148380D01*
X0078720Y0149200D01*
X0092880Y0149200D01*
X0093700Y0148370D02*
X0147900Y0148370D01*
X0148720Y0149200D02*
X0162880Y0149200D01*
X0163700Y0148380D01*
X0163700Y0143220D01*
X0162880Y0142400D01*
X0157678Y0142400D01*
X0158613Y0142013D01*
X0159513Y0141113D01*
X0160000Y0139937D01*
X0160000Y0138787D01*
X0168700Y0130087D01*
X0168700Y0121013D01*
X0167587Y0119900D01*
X0160000Y0112313D01*
X0160000Y0111163D01*
X0159513Y0109987D01*
X0158725Y0109200D01*
X0162880Y0109200D01*
X0162942Y0109137D01*
X0163087Y0111817D01*
X0162966Y0112303D01*
X0163128Y0112573D01*
X0163145Y0112888D01*
X0163518Y0113223D01*
X0163980Y0113992D01*
X0163971Y0114213D01*
X0164372Y0114646D01*
X0164676Y0115152D01*
X0164890Y0115206D01*
X0165041Y0115368D01*
X0165447Y0115384D01*
X0165447Y0117679D01*
X0166267Y0118499D01*
X0173333Y0118499D01*
X0174153Y0117679D01*
X0174153Y0111401D01*
X0173552Y0110800D01*
X0174153Y0110199D01*
X0174153Y0103921D01*
X0173900Y0103668D01*
X0173900Y0102728D01*
X0173955Y0102728D01*
X0174701Y0101981D01*
X0174701Y0238961D01*
X0087999Y0238961D01*
X0088045Y0238915D01*
X0088045Y0231953D01*
X0087576Y0231484D01*
X0078252Y0231484D01*
X0077783Y0231953D01*
X0077783Y0238915D01*
X0077829Y0238961D01*
X0030600Y0238961D01*
X0030600Y0012100D01*
X0174701Y0012100D01*
X0174701Y0079319D01*
X0174055Y0078672D01*
X0173850Y0078672D01*
X0173892Y0076219D01*
X0174040Y0075959D01*
X0173904Y0075461D01*
X0173913Y0074945D01*
X0173705Y0074730D01*
X0173626Y0074441D01*
X0173178Y0074185D01*
X0172999Y0074000D01*
X0172999Y0072267D01*
X0172179Y0071447D01*
X0165901Y0071447D01*
X0165300Y0072048D01*
X0164699Y0071447D01*
X0158421Y0071447D01*
X0157601Y0072267D01*
X0157601Y0074000D01*
X0153700Y0074000D01*
X0153700Y0073220D01*
X0152880Y0072400D01*
X0138720Y0072400D01*
X0137900Y0073220D01*
X0137900Y0078380D01*
X0138720Y0079200D01*
X0144875Y0079200D01*
X0144175Y0079900D01*
X0139826Y0079900D01*
X0135000Y0077004D01*
X0135000Y0076663D01*
X0134513Y0075487D01*
X0133613Y0074587D01*
X0132437Y0074100D01*
X0131163Y0074100D01*
X0129987Y0074587D01*
X0129087Y0075487D01*
X0128600Y0076663D01*
X0128600Y0077937D01*
X0129087Y0079113D01*
X0129987Y0080013D01*
X0131163Y0080500D01*
X0132437Y0080500D01*
X0133030Y0080254D01*
X0138122Y0083309D01*
X0138513Y0083700D01*
X0138774Y0083700D01*
X0138997Y0083834D01*
X0139534Y0083700D01*
X0144175Y0083700D01*
X0144987Y0084513D01*
X0146163Y0085000D01*
X0147437Y0085000D01*
X0147900Y0084808D01*
X0147900Y0087100D01*
X0147063Y0087100D01*
X0145887Y0087587D01*
X0145075Y0088400D01*
X0139713Y0088400D01*
X0138600Y0089513D01*
X0137432Y0090681D01*
X0137052Y0090300D01*
X0137653Y0089699D01*
X0137653Y0083421D01*
X0136833Y0082601D01*
X0129767Y0082601D01*
X0128947Y0083421D01*
X0128947Y0084800D01*
X0119653Y0084800D01*
X0119653Y0079401D01*
X0119052Y0078800D01*
X0119653Y0078199D01*
X0119653Y0071921D01*
X0118833Y0071101D01*
X0111767Y0071101D01*
X0110947Y0071921D01*
X0110947Y0074000D01*
X0103700Y0074000D01*
X0103700Y0073220D01*
X0102880Y0072400D01*
X0088720Y0072400D01*
X0087900Y0073220D01*
X0087900Y0078380D01*
X0088720Y0079200D01*
X0102880Y0079200D01*
X0103700Y0078380D01*
X0103700Y0077800D01*
X0110947Y0077800D01*
X0110947Y0078199D01*
X0111548Y0078800D01*
X0110947Y0079401D01*
X0110947Y0080025D01*
X0080159Y0080025D01*
X0088593Y0071500D01*
X0093587Y0071500D01*
X0096287Y0068800D01*
X0097400Y0067687D01*
X0097400Y0059200D01*
X0102880Y0059200D01*
X0103700Y0058380D01*
X0103700Y0053220D01*
X0102880Y0052400D01*
X0088720Y0052400D01*
X0087900Y0053220D01*
X0087900Y0058380D01*
X0088720Y0059200D01*
X0093600Y0059200D01*
X0093600Y0063120D01*
X0092880Y0062400D01*
X0078720Y0062400D01*
X0077900Y0063220D01*
X0077900Y0068380D01*
X0078720Y0069200D01*
X0081513Y0069200D01*
X0074868Y0075845D01*
X0074513Y0074987D01*
X0073613Y0074087D01*
X0072437Y0073600D01*
X0071163Y0073600D01*
X0069987Y0074087D01*
X0069275Y0074800D01*
X0051381Y0074800D01*
X0047848Y0069404D01*
X0048000Y0069037D01*
X0048000Y0067763D01*
X0047513Y0066587D01*
X0046613Y0065687D01*
X0045437Y0065200D01*
X0044163Y0065200D01*
X0042987Y0065687D01*
X0042087Y0066587D01*
X0041600Y0067763D01*
X0041600Y0069037D01*
X0042087Y0070213D01*
X0042987Y0071113D01*
X0044163Y0071600D01*
X0044505Y0071600D01*
X0048300Y0077397D01*
X0048300Y0077628D01*
X0048740Y0078068D01*
X0049081Y0078589D01*
X0049308Y0078636D01*
X0049472Y0078800D01*
X0050094Y0078800D01*
X0050702Y0078927D01*
X0050897Y0078800D01*
X0069275Y0078800D01*
X0069987Y0079513D01*
X0070845Y0079868D01*
X0035013Y0115700D01*
X0033900Y0116813D01*
X0033900Y0185113D01*
X0033836Y0185191D01*
X0033900Y0185887D01*
X0033900Y0186587D01*
X0033971Y0186658D01*
X0033980Y0186758D01*
X0034518Y0187205D01*
X0035013Y0187700D01*
X0035113Y0187700D01*
X0058218Y0206905D01*
X0058713Y0207400D01*
X0058813Y0207400D01*
X0058891Y0207464D01*
X0059587Y0207400D01*
X0067931Y0207400D01*
X0067931Y0207470D01*
X0068139Y0207678D01*
X0067931Y0207885D01*
X0067931Y0212195D01*
X0068139Y0212402D01*
X0067931Y0212610D01*
X0067931Y0216919D01*
X0068139Y0217127D01*
X0067931Y0217334D01*
X0067931Y0221493D01*
X0067891Y0221533D01*
X0067654Y0221944D01*
X0067531Y0222402D01*
X0067531Y0224213D01*
X0072284Y0224213D01*
X0072284Y0224213D01*
X0067531Y0224213D01*
X0067531Y0226025D01*
X0067654Y0226483D01*
X0067891Y0226893D01*
X0068226Y0227229D01*
X0068637Y0227466D01*
X0069095Y0227588D01*
X0072284Y0227588D01*
X0072284Y0224214D01*
X0072284Y0224214D01*
X0072284Y0227588D01*
X0072598Y0227588D01*
X0072453Y0227658D01*
X0072450Y0227668D01*
X0072439Y0227670D01*
X0072242Y0227918D01*
X0071995Y0228115D01*
X0071994Y0228126D01*
X0071983Y0228130D01*
X0071846Y0228415D01*
X0071649Y0228663D01*
X0071651Y0228674D01*
X0071641Y0228680D01*
X0071571Y0228988D01*
X0071435Y0229274D01*
X0071438Y0229284D01*
X0071431Y0229290D01*
X0071431Y0229608D01*
X0071361Y0229917D01*
X0071431Y0230029D01*
X0071431Y0232571D01*
X0071361Y0232683D01*
X0071431Y0232992D01*
X0071431Y0233310D01*
X0071438Y0233316D01*
X0071435Y0233326D01*
X0071571Y0233612D01*
X0071641Y0233920D01*
X0071651Y0233926D01*
X0071649Y0233937D01*
X0071846Y0234185D01*
X0071983Y0234470D01*
X0071994Y0234474D01*
X0071995Y0234485D01*
X0072242Y0234682D01*
X0072439Y0234930D01*
X0072450Y0234932D01*
X0072453Y0234942D01*
X0072739Y0235080D01*
X0072986Y0235277D01*
X0072997Y0235276D01*
X0073002Y0235285D01*
X0073311Y0235356D01*
X0073596Y0235494D01*
X0073606Y0235491D01*
X0073614Y0235498D01*
X0073930Y0235499D01*
X0074239Y0235570D01*
X0074351Y0235500D01*
X0074450Y0235500D01*
X0074548Y0235500D01*
X0074660Y0235570D01*
X0074969Y0235499D01*
X0075285Y0235498D01*
X0075293Y0235491D01*
X0075303Y0235494D01*
X0075588Y0235356D01*
X0075897Y0235285D01*
X0075903Y0235276D01*
X0075913Y0235277D01*
X0076161Y0235080D01*
X0076446Y0234942D01*
X0076449Y0234932D01*
X0076460Y0234930D01*
X0076657Y0234682D01*
X0076904Y0234485D01*
X0076906Y0234474D01*
X0076916Y0234470D01*
X0077053Y0234185D01*
X0077250Y0233937D01*
X0077249Y0233926D01*
X0077258Y0233920D01*
X0077328Y0233612D01*
X0077465Y0233326D01*
X0077461Y0233316D01*
X0077468Y0233310D01*
X0077468Y0232992D01*
X0077538Y0232683D01*
X0077468Y0232571D01*
X0077468Y0230029D01*
X0077538Y0229917D01*
X0077468Y0229608D01*
X0077468Y0229290D01*
X0077461Y0229284D01*
X0077465Y0229274D01*
X0077328Y0228988D01*
X0077258Y0228680D01*
X0077249Y0228674D01*
X0077250Y0228663D01*
X0077053Y0228415D01*
X0076916Y0228130D01*
X0076906Y0228126D01*
X0076904Y0228115D01*
X0076657Y0227918D01*
X0076460Y0227670D01*
X0076449Y0227668D01*
X0076446Y0227658D01*
X0076161Y0227520D01*
X0076025Y0227412D01*
X0076342Y0227229D01*
X0076677Y0226893D01*
X0076838Y0226616D01*
X0077283Y0226800D01*
X0082917Y0226800D01*
X0083873Y0226404D01*
X0084604Y0225673D01*
X0085000Y0224717D01*
X0085000Y0223683D01*
X0084604Y0222727D01*
X0083873Y0221996D01*
X0083621Y0221891D01*
X0084073Y0221704D01*
X0084804Y0220973D01*
X0085200Y0220017D01*
X0085200Y0218983D01*
X0084804Y0218027D01*
X0084073Y0217296D01*
X0083359Y0217000D01*
X0084073Y0216704D01*
X0084804Y0215973D01*
X0085200Y0215017D01*
X0085200Y0213983D01*
X0084804Y0213027D01*
X0084077Y0212300D01*
X0084804Y0211573D01*
X0085200Y0210617D01*
X0085200Y0209583D01*
X0084804Y0208627D01*
X0084073Y0207896D01*
X0083117Y0207500D01*
X0077483Y0207500D01*
X0076612Y0207861D01*
X0076429Y0207678D01*
X0076637Y0207470D01*
X0076637Y0206950D01*
X0077483Y0207300D01*
X0083117Y0207300D01*
X0084073Y0206904D01*
X0084804Y0206173D01*
X0085200Y0205217D01*
X0085200Y0204183D01*
X0084804Y0203227D01*
X0084177Y0202600D01*
X0084804Y0201973D01*
X0085200Y0201017D01*
X0085200Y0199983D01*
X0084804Y0199027D01*
X0084073Y0198296D01*
X0083117Y0197900D01*
X0077483Y0197900D01*
X0076527Y0198296D01*
X0076512Y0198311D01*
X0076429Y0198229D01*
X0076637Y0198022D01*
X0076637Y0197450D01*
X0084763Y0197450D01*
X0107400Y0220087D01*
X0107400Y0220087D01*
X0108513Y0221200D01*
X0111239Y0221200D01*
X0111239Y0221493D01*
X0111198Y0221533D01*
X0110961Y0221944D01*
X0110839Y0222402D01*
X0110839Y0224213D01*
X0115591Y0224213D01*
X0115591Y0224213D01*
X0110839Y0224213D01*
X0110839Y0226025D01*
X0110961Y0226483D01*
X0111198Y0226893D01*
X0111533Y0227229D01*
X0111851Y0227412D01*
X0111715Y0227520D01*
X0111430Y0227658D01*
X0111426Y0227668D01*
X0111415Y0227670D01*
X0111218Y0227918D01*
X0110971Y0228115D01*
X0110970Y0228126D01*
X0110960Y0228130D01*
X0110823Y0228415D01*
X0110626Y0228663D01*
X0110627Y0228674D01*
X0110618Y0228680D01*
X0110548Y0228988D01*
X0110411Y0229274D01*
X0110414Y0229284D01*
X0110407Y0229290D01*
X0110407Y0229608D01*
X0110337Y0229917D01*
X0110407Y0230029D01*
X0110407Y0232571D01*
X0110337Y0232683D01*
X0110407Y0232992D01*
X0110407Y0233310D01*
X0110414Y0233316D01*
X0110411Y0233326D01*
X0110548Y0233612D01*
X0110618Y0233920D01*
X0110627Y0233926D01*
X0110626Y0233937D01*
X0110823Y0234185D01*
X0110960Y0234470D01*
X0110970Y0234474D01*
X0110971Y0234485D01*
X0111218Y0234682D01*
X0111415Y0234930D01*
X0111426Y0234932D01*
X0111430Y0234942D01*
X0111715Y0235080D01*
X0111962Y0235277D01*
X0111973Y0235276D01*
X0111979Y0235285D01*
X0112287Y0235356D01*
X0112572Y0235494D01*
X0112583Y0235491D01*
X0112590Y0235498D01*
X0112907Y0235499D01*
X0113215Y0235570D01*
X0113327Y0235500D01*
X0113426Y0235500D01*
X0113525Y0235500D01*
X0113636Y0235570D01*
X0113945Y0235499D01*
X0114262Y0235498D01*
X0114269Y0235491D01*
X0114280Y0235494D01*
X0114565Y0235356D01*
X0114873Y0235285D01*
X0114879Y0235276D01*
X0114890Y0235277D01*
X0115137Y0235080D01*
X0115422Y0234942D01*
X0115426Y0234932D01*
X0115437Y0234930D01*
X0115634Y0234682D01*
X0115881Y0234485D01*
X0115882Y0234474D01*
X0115892Y0234470D01*
X0116029Y0234185D01*
X0116226Y0233937D01*
X0116225Y0233926D01*
X0116234Y0233920D01*
X0116304Y0233612D01*
X0116441Y0233326D01*
X0116438Y0233316D01*
X0116444Y0233310D01*
X0116444Y0232992D01*
X0116515Y0232683D01*
X0116444Y0232571D01*
X0116444Y0230029D01*
X0116515Y0229917D01*
X0116444Y0229608D01*
X0116444Y0229290D01*
X0116438Y0229284D01*
X0116441Y0229274D01*
X0116304Y0228988D01*
X0116234Y0228680D01*
X0116225Y0228674D01*
X0116226Y0228663D01*
X0116029Y0228415D01*
X0115892Y0228130D01*
X0115882Y0228126D01*
X0115881Y0228115D01*
X0115634Y0227918D01*
X0115437Y0227670D01*
X0115426Y0227668D01*
X0115422Y0227658D01*
X0115277Y0227588D01*
X0115591Y0227588D01*
X0115591Y0224214D01*
X0115591Y0224214D01*
X0115591Y0227588D01*
X0118781Y0227588D01*
X0119239Y0227466D01*
X0119610Y0227251D01*
X0119768Y0230306D01*
X0119087Y0230987D01*
X0118600Y0232163D01*
X0118600Y0233437D01*
X0119087Y0234613D01*
X0119987Y0235513D01*
X0121163Y0236000D01*
X0122437Y0236000D01*
X0123613Y0235513D01*
X0124513Y0234613D01*
X0125000Y0233437D01*
X0125000Y0232163D01*
X0124513Y0230987D01*
X0123613Y0230087D01*
X0123561Y0230066D01*
X0123011Y0219440D01*
X0123011Y0218702D01*
X0122971Y0218662D01*
X0122968Y0218605D01*
X0122420Y0218111D01*
X0121898Y0217589D01*
X0121841Y0217589D01*
X0121799Y0217551D01*
X0121062Y0217589D01*
X0119944Y0217589D01*
X0119944Y0217334D01*
X0119737Y0217127D01*
X0119944Y0216919D01*
X0119944Y0212610D01*
X0119737Y0212402D01*
X0119944Y0212195D01*
X0119944Y0207885D01*
X0119737Y0207678D01*
X0119944Y0207470D01*
X0119944Y0203161D01*
X0119737Y0202954D01*
X0119944Y0202746D01*
X0119944Y0198437D01*
X0119737Y0198229D01*
X0119944Y0198022D01*
X0119944Y0193712D01*
X0119737Y0193505D01*
X0119944Y0193297D01*
X0119944Y0188988D01*
X0119124Y0188168D01*
X0115630Y0188168D01*
X0115791Y0187911D01*
X0116015Y0187687D01*
X0116015Y0187651D01*
X0116047Y0187636D01*
X0116152Y0187337D01*
X0116320Y0187069D01*
X0116312Y0187034D01*
X0116340Y0187012D01*
X0116375Y0186698D01*
X0116480Y0186399D01*
X0116444Y0186325D01*
X0116444Y0186083D01*
X0116487Y0185710D01*
X0116444Y0185657D01*
X0116444Y0184817D01*
X0116487Y0184764D01*
X0116444Y0184391D01*
X0116444Y0184149D01*
X0116480Y0184075D01*
X0116391Y0183822D01*
X0116391Y0181484D01*
X0116391Y0181116D01*
X0112807Y0181116D01*
X0112807Y0180929D01*
X0112952Y0180201D01*
X0113236Y0179515D01*
X0113648Y0178898D01*
X0114173Y0178373D01*
X0114791Y0177960D01*
X0115476Y0177676D01*
X0116204Y0177531D01*
X0116391Y0177531D01*
X0116391Y0181116D01*
X0116760Y0181116D01*
X0116760Y0181484D01*
X0120344Y0181484D01*
X0120344Y0181671D01*
X0120199Y0182399D01*
X0119915Y0183085D01*
X0119503Y0183702D01*
X0118978Y0184227D01*
X0118361Y0184640D01*
X0117675Y0184924D01*
X0116947Y0185068D01*
X0116760Y0185068D01*
X0116760Y0181484D01*
X0116391Y0181484D01*
X0114053Y0181484D01*
X0113800Y0181396D01*
X0113768Y0181411D01*
X0113741Y0181389D01*
X0113426Y0181424D01*
X0113111Y0181389D01*
X0113084Y0181411D01*
X0113052Y0181396D01*
X0112753Y0181500D01*
X0112595Y0181518D01*
X0112273Y0181196D01*
X0111317Y0180800D01*
X0110283Y0180800D01*
X0109327Y0181196D01*
X0108724Y0181799D01*
X0108724Y0178752D01*
X0108500Y0178528D01*
X0108500Y0177500D01*
X0123100Y0177500D01*
X0123100Y0204211D01*
X0124389Y0205500D01*
X0129650Y0205500D01*
X0129650Y0205601D01*
X0127767Y0205601D01*
X0126947Y0206421D01*
X0126947Y0212699D01*
X0127272Y0213023D01*
X0127242Y0213041D01*
X0126907Y0213376D01*
X0126670Y0213786D01*
X0126547Y0214244D01*
X0126547Y0216561D01*
X0130820Y0216561D01*
X0130820Y0217520D01*
X0126547Y0217520D01*
X0126547Y0219836D01*
X0126670Y0220294D01*
X0126907Y0220704D01*
X0127242Y0221040D01*
X0127652Y0221277D01*
X0128110Y0221399D01*
X0130820Y0221399D01*
X0130820Y0217520D01*
X0131780Y0217520D01*
X0136053Y0217520D01*
X0136053Y0219836D01*
X0135930Y0220294D01*
X0135693Y0220704D01*
X0135358Y0221040D01*
X0134948Y0221277D01*
X0134490Y0221399D01*
X0131780Y0221399D01*
X0131780Y0217520D01*
X0131780Y0216561D01*
X0136053Y0216561D01*
X0136053Y0214244D01*
X0135930Y0213786D01*
X0135693Y0213376D01*
X0135358Y0213041D01*
X0135328Y0213023D01*
X0135653Y0212699D01*
X0135653Y0206421D01*
X0134833Y0205601D01*
X0133477Y0205601D01*
X0133500Y0205270D01*
X0133450Y0205213D01*
X0133450Y0204511D01*
X0133462Y0204499D01*
X0134833Y0204499D01*
X0135653Y0203679D01*
X0135653Y0197401D01*
X0135052Y0196800D01*
X0135653Y0196199D01*
X0135653Y0189921D01*
X0134833Y0189101D01*
X0133272Y0189101D01*
X0133436Y0180101D01*
X0134537Y0179000D01*
X0135687Y0179000D01*
X0136863Y0178513D01*
X0137763Y0177613D01*
X0138250Y0176437D01*
X0138250Y0175163D01*
X0137763Y0173987D01*
X0137475Y0173700D01*
X0138812Y0173700D01*
X0139074Y0173844D01*
X0139570Y0173700D01*
X0140087Y0173700D01*
X0140298Y0173489D01*
X0140586Y0173405D01*
X0140835Y0172952D01*
X0141200Y0172587D01*
X0141200Y0172288D01*
X0145923Y0163700D01*
X0147900Y0163700D01*
X0147900Y0168380D01*
X0148720Y0169200D01*
X0152100Y0169200D01*
X0152100Y0191900D01*
X0149925Y0191900D01*
X0148308Y0192570D01*
X0147070Y0193808D01*
X0146400Y0195425D01*
X0146400Y0197175D01*
X0147070Y0198792D01*
X0148308Y0200030D01*
X0149925Y0200700D01*
X0157675Y0200700D01*
X0159292Y0200030D01*
X0160530Y0198792D01*
X0161200Y0197175D01*
X0161200Y0195425D01*
X0160530Y0193808D01*
X0159292Y0192570D01*
X0157675Y0191900D01*
X0155900Y0191900D01*
X0155900Y0189200D01*
X0157175Y0189200D01*
X0157987Y0190013D01*
X0159163Y0190500D01*
X0160437Y0190500D01*
X0161613Y0190013D01*
X0162513Y0189113D01*
X0163000Y0187937D01*
X0163000Y0186663D01*
X0162513Y0185487D01*
X0161613Y0184587D01*
X0160437Y0184100D01*
X0159163Y0184100D01*
X0157987Y0184587D01*
X0157175Y0185400D01*
X0155900Y0185400D01*
X0155900Y0169200D01*
X0162400Y0169200D01*
X0162400Y0182587D01*
X0164900Y0185087D01*
X0165947Y0186134D01*
X0165947Y0186679D01*
X0166767Y0187499D01*
X0173833Y0187499D01*
X0174653Y0186679D01*
X0174653Y0180401D01*
X0174052Y0179800D01*
X0174653Y0179199D01*
X0174653Y0172921D01*
X0173833Y0172101D01*
X0172100Y0172101D01*
X0172100Y0168728D01*
X0173455Y0168728D01*
X0174275Y0167907D01*
X0174275Y0163598D01*
X0173701Y0163024D01*
X0173980Y0162862D01*
X0174315Y0162527D01*
X0174552Y0162117D01*
X0174675Y0161659D01*
X0174675Y0159847D01*
X0171300Y0159847D01*
X0171300Y0159560D02*
X0171300Y0159560D01*
X0171300Y0157962D02*
X0171300Y0157962D01*
X0174655Y0157962D02*
X0174701Y0157962D01*
X0174675Y0159560D02*
X0174701Y0159560D01*
X0174675Y0161159D02*
X0174701Y0161159D01*
X0174701Y0162757D02*
X0174085Y0162757D01*
X0174275Y0164356D02*
X0174701Y0164356D01*
X0174701Y0165954D02*
X0174275Y0165954D01*
X0174275Y0167553D02*
X0174701Y0167553D01*
X0174701Y0169151D02*
X0172100Y0169151D01*
X0172100Y0170750D02*
X0174701Y0170750D01*
X0174701Y0172348D02*
X0174080Y0172348D01*
X0174653Y0173947D02*
X0174701Y0173947D01*
X0174653Y0175545D02*
X0174701Y0175545D01*
X0174653Y0177144D02*
X0174701Y0177144D01*
X0174653Y0178742D02*
X0174701Y0178742D01*
X0174701Y0180341D02*
X0174592Y0180341D01*
X0174653Y0181939D02*
X0174701Y0181939D01*
X0174653Y0183538D02*
X0174701Y0183538D01*
X0174653Y0185136D02*
X0174701Y0185136D01*
X0174701Y0186735D02*
X0174597Y0186735D01*
X0174701Y0188333D02*
X0162836Y0188333D01*
X0163000Y0186735D02*
X0166003Y0186735D01*
X0164949Y0185136D02*
X0162162Y0185136D01*
X0163351Y0183538D02*
X0155900Y0183538D01*
X0155900Y0185136D02*
X0157438Y0185136D01*
X0155900Y0181939D02*
X0162400Y0181939D01*
X0162400Y0180341D02*
X0155900Y0180341D01*
X0155900Y0178742D02*
X0162400Y0178742D01*
X0162400Y0177144D02*
X0155900Y0177144D01*
X0155900Y0175545D02*
X0162400Y0175545D01*
X0162400Y0173947D02*
X0155900Y0173947D01*
X0155900Y0172348D02*
X0162400Y0172348D01*
X0162400Y0170750D02*
X0155900Y0170750D01*
X0152100Y0170750D02*
X0142046Y0170750D01*
X0141200Y0172348D02*
X0152100Y0172348D01*
X0152100Y0173947D02*
X0137722Y0173947D01*
X0138250Y0175545D02*
X0152100Y0175545D01*
X0152100Y0177144D02*
X0137957Y0177144D01*
X0136309Y0178742D02*
X0152100Y0178742D01*
X0152100Y0180341D02*
X0133431Y0180341D01*
X0133402Y0181939D02*
X0152100Y0181939D01*
X0152100Y0183538D02*
X0133373Y0183538D01*
X0133344Y0185136D02*
X0152100Y0185136D01*
X0152100Y0186735D02*
X0133315Y0186735D01*
X0133286Y0188333D02*
X0152100Y0188333D01*
X0152100Y0189932D02*
X0135653Y0189932D01*
X0135653Y0191530D02*
X0152100Y0191530D01*
X0155900Y0191530D02*
X0174701Y0191530D01*
X0174701Y0189932D02*
X0161694Y0189932D01*
X0159851Y0193129D02*
X0174701Y0193129D01*
X0174701Y0194727D02*
X0160911Y0194727D01*
X0161200Y0196326D02*
X0174701Y0196326D01*
X0174701Y0197924D02*
X0160890Y0197924D01*
X0159800Y0199523D02*
X0174701Y0199523D01*
X0174701Y0201121D02*
X0135653Y0201121D01*
X0135653Y0199523D02*
X0147800Y0199523D01*
X0146710Y0197924D02*
X0135653Y0197924D01*
X0135526Y0196326D02*
X0146400Y0196326D01*
X0146689Y0194727D02*
X0135653Y0194727D01*
X0135653Y0193129D02*
X0147749Y0193129D01*
X0149676Y0201618D02*
X0148957Y0201852D01*
X0148284Y0202195D01*
X0147673Y0202639D01*
X0147139Y0203173D01*
X0146695Y0203784D01*
X0146352Y0204457D01*
X0146118Y0205176D01*
X0146000Y0205922D01*
X0146000Y0206100D01*
X0153600Y0206100D01*
X0154000Y0206100D01*
X0154000Y0206500D01*
X0153600Y0206500D01*
X0153600Y0211100D01*
X0150422Y0211100D01*
X0149676Y0210982D01*
X0148957Y0210748D01*
X0148284Y0210405D01*
X0147673Y0209961D01*
X0147139Y0209427D01*
X0146695Y0208816D01*
X0146352Y0208143D01*
X0146118Y0207424D01*
X0146000Y0206678D01*
X0146000Y0206500D01*
X0153600Y0206500D01*
X0153600Y0206100D01*
X0153600Y0201500D01*
X0150422Y0201500D01*
X0149676Y0201618D01*
X0147592Y0202720D02*
X0135653Y0202720D01*
X0135013Y0204318D02*
X0146423Y0204318D01*
X0146001Y0205917D02*
X0135149Y0205917D01*
X0135653Y0207515D02*
X0146148Y0207515D01*
X0146911Y0209114D02*
X0135653Y0209114D01*
X0135653Y0210712D02*
X0148887Y0210712D01*
X0153600Y0210712D02*
X0154000Y0210712D01*
X0154000Y0211100D02*
X0154000Y0206500D01*
X0161600Y0206500D01*
X0161600Y0206678D01*
X0161482Y0207424D01*
X0161248Y0208143D01*
X0160905Y0208816D01*
X0160461Y0209427D01*
X0159927Y0209961D01*
X0159316Y0210405D01*
X0158643Y0210748D01*
X0157924Y0210982D01*
X0157178Y0211100D01*
X0154000Y0211100D01*
X0154000Y0209114D02*
X0153600Y0209114D01*
X0153600Y0207515D02*
X0154000Y0207515D01*
X0154000Y0206100D02*
X0161600Y0206100D01*
X0161600Y0205922D01*
X0161482Y0205176D01*
X0161248Y0204457D01*
X0160905Y0203784D01*
X0160461Y0203173D01*
X0159927Y0202639D01*
X0159316Y0202195D01*
X0158643Y0201852D01*
X0157924Y0201618D01*
X0157178Y0201500D01*
X0154000Y0201500D01*
X0154000Y0206100D01*
X0154000Y0205917D02*
X0153600Y0205917D01*
X0153600Y0204318D02*
X0154000Y0204318D01*
X0154000Y0202720D02*
X0153600Y0202720D01*
X0160008Y0202720D02*
X0174701Y0202720D01*
X0174701Y0204318D02*
X0161177Y0204318D01*
X0161599Y0205917D02*
X0174701Y0205917D01*
X0174701Y0207515D02*
X0161452Y0207515D01*
X0160689Y0209114D02*
X0174701Y0209114D01*
X0174701Y0210712D02*
X0158713Y0210712D01*
X0157906Y0189932D02*
X0155900Y0189932D01*
X0166200Y0172348D02*
X0166520Y0172348D01*
X0166200Y0170750D02*
X0168300Y0170750D01*
X0168300Y0169151D02*
X0166200Y0169151D01*
X0166200Y0167553D02*
X0168300Y0167553D01*
X0168325Y0165954D02*
X0166200Y0165954D01*
X0166200Y0164356D02*
X0168325Y0164356D01*
X0168515Y0162757D02*
X0166200Y0162757D01*
X0166200Y0161159D02*
X0167925Y0161159D01*
X0167925Y0159560D02*
X0152686Y0159560D01*
X0154100Y0157962D02*
X0167945Y0157962D01*
X0174701Y0156363D02*
X0154100Y0156363D01*
X0154100Y0154765D02*
X0174701Y0154765D01*
X0174701Y0153166D02*
X0153994Y0153166D01*
X0147900Y0146772D02*
X0093700Y0146772D01*
X0093700Y0145173D02*
X0147900Y0145173D01*
X0147900Y0143575D02*
X0093700Y0143575D01*
X0095600Y0139600D02*
X0089063Y0139600D01*
X0088605Y0139477D01*
X0088195Y0139240D01*
X0087860Y0138905D01*
X0087623Y0138495D01*
X0087500Y0138037D01*
X0087500Y0136000D01*
X0095600Y0136000D01*
X0095600Y0139600D01*
X0096000Y0139600D02*
X0096000Y0136000D01*
X0095600Y0136000D01*
X0095600Y0135600D01*
X0087500Y0135600D01*
X0087500Y0133563D01*
X0087623Y0133105D01*
X0087860Y0132695D01*
X0088195Y0132360D01*
X0088605Y0132123D01*
X0089063Y0132000D01*
X0095600Y0132000D01*
X0095600Y0135600D01*
X0096000Y0135600D01*
X0096000Y0136000D01*
X0104100Y0136000D01*
X0104100Y0138037D01*
X0103977Y0138495D01*
X0103740Y0138905D01*
X0103405Y0139240D01*
X0102995Y0139477D01*
X0102537Y0139600D01*
X0096000Y0139600D01*
X0096000Y0138779D02*
X0095600Y0138779D01*
X0095600Y0137181D02*
X0096000Y0137181D01*
X0096000Y0135600D02*
X0104100Y0135600D01*
X0104100Y0133563D01*
X0103977Y0133105D01*
X0103740Y0132695D01*
X0103405Y0132360D01*
X0102995Y0132123D01*
X0102537Y0132000D01*
X0096000Y0132000D01*
X0096000Y0135600D01*
X0096000Y0135582D02*
X0095600Y0135582D01*
X0095600Y0133984D02*
X0096000Y0133984D01*
X0096000Y0132385D02*
X0095600Y0132385D01*
X0092880Y0129200D02*
X0078720Y0129200D01*
X0077900Y0128380D01*
X0077900Y0123220D01*
X0078720Y0122400D01*
X0092880Y0122400D01*
X0093700Y0123220D01*
X0093700Y0123650D01*
X0106337Y0123650D01*
X0107450Y0124763D01*
X0117537Y0134850D01*
X0118687Y0134850D01*
X0119863Y0135337D01*
X0120763Y0136237D01*
X0121250Y0137413D01*
X0121250Y0138687D01*
X0120763Y0139863D01*
X0119863Y0140763D01*
X0118687Y0141250D01*
X0117413Y0141250D01*
X0116237Y0140763D01*
X0115337Y0139863D01*
X0114850Y0138687D01*
X0114850Y0137537D01*
X0104763Y0127450D01*
X0093700Y0127450D01*
X0093700Y0128380D01*
X0092880Y0129200D01*
X0092892Y0129188D02*
X0106501Y0129188D01*
X0104903Y0127590D02*
X0093700Y0127590D01*
X0093274Y0122794D02*
X0125119Y0122794D01*
X0126717Y0121196D02*
X0046825Y0121196D01*
X0046825Y0122794D02*
X0054581Y0122794D01*
X0053192Y0124184D02*
X0056180Y0121196D01*
X0060405Y0121196D01*
X0063292Y0124084D01*
X0066180Y0121196D01*
X0070405Y0121196D01*
X0073392Y0124184D01*
X0073392Y0128409D01*
X0070505Y0131296D01*
X0073392Y0134184D01*
X0073392Y0138409D01*
X0070505Y0141296D01*
X0073392Y0144184D01*
X0073392Y0148409D01*
X0070405Y0151396D01*
X0066180Y0151396D01*
X0063292Y0148509D01*
X0060405Y0151396D01*
X0056180Y0151396D01*
X0053192Y0148409D01*
X0053192Y0144184D01*
X0056080Y0141296D01*
X0053192Y0138409D01*
X0053192Y0134184D01*
X0056080Y0131296D01*
X0053192Y0128409D01*
X0053192Y0124184D01*
X0053192Y0124393D02*
X0046825Y0124393D01*
X0046825Y0125991D02*
X0053192Y0125991D01*
X0053192Y0127590D02*
X0046825Y0127590D01*
X0046825Y0129188D02*
X0053972Y0129188D01*
X0055570Y0130787D02*
X0046825Y0130787D01*
X0046825Y0132385D02*
X0054990Y0132385D01*
X0053392Y0133984D02*
X0046825Y0133984D01*
X0046825Y0135582D02*
X0053192Y0135582D01*
X0053192Y0137181D02*
X0046825Y0137181D01*
X0046825Y0138779D02*
X0053563Y0138779D01*
X0055162Y0140378D02*
X0046825Y0140378D01*
X0046825Y0141976D02*
X0055399Y0141976D01*
X0053801Y0143575D02*
X0046825Y0143575D01*
X0046825Y0145173D02*
X0053192Y0145173D01*
X0053192Y0146772D02*
X0046825Y0146772D01*
X0046825Y0148370D02*
X0053192Y0148370D01*
X0054753Y0149969D02*
X0046825Y0149969D01*
X0046825Y0151568D02*
X0174701Y0151568D01*
X0174701Y0149969D02*
X0071832Y0149969D01*
X0073392Y0148370D02*
X0077900Y0148370D01*
X0077900Y0146772D02*
X0073392Y0146772D01*
X0073392Y0145173D02*
X0077900Y0145173D01*
X0077900Y0143575D02*
X0072783Y0143575D01*
X0071185Y0141976D02*
X0154951Y0141976D01*
X0153783Y0140378D02*
X0120248Y0140378D01*
X0121212Y0138779D02*
X0138300Y0138779D01*
X0137900Y0138380D02*
X0137900Y0133220D01*
X0138720Y0132400D01*
X0139413Y0132400D01*
X0134713Y0127700D01*
X0133563Y0127700D01*
X0132387Y0127213D01*
X0131487Y0126313D01*
X0131000Y0125137D01*
X0131000Y0123863D01*
X0131487Y0122687D01*
X0132387Y0121787D01*
X0133563Y0121300D01*
X0134837Y0121300D01*
X0136013Y0121787D01*
X0136913Y0122687D01*
X0137400Y0123863D01*
X0137400Y0125013D01*
X0144787Y0132400D01*
X0152880Y0132400D01*
X0153700Y0133220D01*
X0153700Y0138380D01*
X0152880Y0139200D01*
X0138720Y0139200D01*
X0137900Y0138380D01*
X0137900Y0137181D02*
X0121154Y0137181D01*
X0120108Y0135582D02*
X0137900Y0135582D01*
X0137900Y0133984D02*
X0116671Y0133984D01*
X0116860Y0132385D02*
X0115072Y0132385D01*
X0115804Y0130787D02*
X0113474Y0130787D01*
X0111875Y0129188D02*
X0115731Y0129188D01*
X0116685Y0127590D02*
X0110277Y0127590D01*
X0108678Y0125991D02*
X0121922Y0125991D01*
X0123520Y0124393D02*
X0107080Y0124393D01*
X0103700Y0117999D02*
X0129914Y0117999D01*
X0128316Y0119597D02*
X0046825Y0119597D01*
X0046825Y0117999D02*
X0087900Y0117999D01*
X0087900Y0116400D02*
X0047370Y0116400D01*
X0048946Y0114802D02*
X0067976Y0114802D01*
X0066852Y0113203D02*
X0050521Y0113203D01*
X0052096Y0111605D02*
X0066700Y0111605D01*
X0067568Y0110006D02*
X0053671Y0110006D01*
X0055246Y0108408D02*
X0070471Y0108408D01*
X0070464Y0106809D02*
X0056822Y0106809D01*
X0058397Y0105211D02*
X0071464Y0105211D01*
X0071600Y0103612D02*
X0059972Y0103612D01*
X0061547Y0102014D02*
X0071600Y0102014D01*
X0071600Y0100415D02*
X0063122Y0100415D01*
X0064697Y0098817D02*
X0071600Y0098817D01*
X0071600Y0097218D02*
X0066273Y0097218D01*
X0067848Y0095620D02*
X0074112Y0095620D01*
X0076368Y0098817D02*
X0088337Y0098817D01*
X0087900Y0097218D02*
X0080447Y0097218D01*
X0082270Y0092423D02*
X0070998Y0092423D01*
X0069423Y0094021D02*
X0078191Y0094021D01*
X0074148Y0089226D02*
X0087239Y0089226D01*
X0086349Y0090824D02*
X0072573Y0090824D01*
X0075724Y0087627D02*
X0077900Y0087627D01*
X0077900Y0086029D02*
X0077299Y0086029D01*
X0080545Y0079634D02*
X0110947Y0079634D01*
X0110947Y0078036D02*
X0103700Y0078036D01*
X0103700Y0073240D02*
X0110947Y0073240D01*
X0111226Y0071642D02*
X0088453Y0071642D01*
X0087900Y0073240D02*
X0086871Y0073240D01*
X0087900Y0074839D02*
X0085290Y0074839D01*
X0083708Y0076437D02*
X0087900Y0076437D01*
X0087900Y0078036D02*
X0082127Y0078036D01*
X0077473Y0073240D02*
X0050360Y0073240D01*
X0049313Y0071642D02*
X0079071Y0071642D01*
X0080670Y0070043D02*
X0048267Y0070043D01*
X0048000Y0068445D02*
X0055229Y0068445D01*
X0056180Y0069396D02*
X0053192Y0066409D01*
X0053192Y0062184D01*
X0056080Y0059296D01*
X0053192Y0056409D01*
X0053192Y0052184D01*
X0056080Y0049296D01*
X0053192Y0046409D01*
X0053192Y0042184D01*
X0056180Y0039196D01*
X0060405Y0039196D01*
X0063292Y0042084D01*
X0066180Y0039196D01*
X0069368Y0039196D01*
X0065472Y0035300D01*
X0054691Y0035300D01*
X0054462Y0035627D01*
X0054268Y0035661D01*
X0054128Y0035800D01*
X0053474Y0035800D01*
X0050428Y0036334D01*
X0050313Y0036613D01*
X0049413Y0037513D01*
X0048237Y0038000D01*
X0046963Y0038000D01*
X0045787Y0037513D01*
X0044887Y0036613D01*
X0044400Y0035437D01*
X0044400Y0034163D01*
X0044887Y0032987D01*
X0045787Y0032087D01*
X0046963Y0031600D01*
X0048237Y0031600D01*
X0049413Y0032087D01*
X0049723Y0032397D01*
X0052332Y0031939D01*
X0052972Y0031300D01*
X0067128Y0031300D01*
X0068300Y0032472D01*
X0072828Y0037000D01*
X0072928Y0037000D01*
X0074100Y0038172D01*
X0074100Y0038313D01*
X0075187Y0039400D01*
X0076337Y0039400D01*
X0077513Y0039887D01*
X0078413Y0040787D01*
X0078900Y0041963D01*
X0078900Y0042400D01*
X0092880Y0042400D01*
X0093700Y0043220D01*
X0093700Y0048380D01*
X0092880Y0049200D01*
X0078720Y0049200D01*
X0077900Y0048380D01*
X0077900Y0044925D01*
X0077513Y0045313D01*
X0076337Y0045800D01*
X0075063Y0045800D01*
X0073887Y0045313D01*
X0073392Y0044818D01*
X0073392Y0046409D01*
X0070505Y0049296D01*
X0073392Y0052184D01*
X0073392Y0056409D01*
X0070505Y0059296D01*
X0073392Y0062184D01*
X0073392Y0066409D01*
X0070405Y0069396D01*
X0066180Y0069396D01*
X0063292Y0066509D01*
X0060405Y0069396D01*
X0056180Y0069396D01*
X0053630Y0066846D02*
X0047620Y0066846D01*
X0045552Y0065248D02*
X0053192Y0065248D01*
X0053192Y0063649D02*
X0030600Y0063649D01*
X0030600Y0062051D02*
X0053325Y0062051D01*
X0054923Y0060452D02*
X0030600Y0060452D01*
X0030600Y0058854D02*
X0055637Y0058854D01*
X0054039Y0057255D02*
X0030600Y0057255D01*
X0030600Y0055657D02*
X0053192Y0055657D01*
X0053192Y0054058D02*
X0030600Y0054058D01*
X0030600Y0052460D02*
X0053192Y0052460D01*
X0054514Y0050861D02*
X0030600Y0050861D01*
X0030600Y0049263D02*
X0056046Y0049263D01*
X0054448Y0047664D02*
X0030600Y0047664D01*
X0030600Y0046066D02*
X0053192Y0046066D01*
X0053192Y0044467D02*
X0030600Y0044467D01*
X0030600Y0042869D02*
X0053192Y0042869D01*
X0054105Y0041270D02*
X0030600Y0041270D01*
X0030600Y0039672D02*
X0055704Y0039672D01*
X0060880Y0039672D02*
X0065704Y0039672D01*
X0064105Y0041270D02*
X0062479Y0041270D01*
X0066646Y0036475D02*
X0050370Y0036475D01*
X0048428Y0031679D02*
X0052592Y0031679D01*
X0046772Y0031679D02*
X0030600Y0031679D01*
X0030600Y0030081D02*
X0174701Y0030081D01*
X0174701Y0031679D02*
X0067508Y0031679D01*
X0069106Y0033278D02*
X0087900Y0033278D01*
X0087900Y0033220D02*
X0088720Y0032400D01*
X0102880Y0032400D01*
X0103700Y0033220D01*
X0103700Y0038380D01*
X0102880Y0039200D01*
X0088720Y0039200D01*
X0087900Y0038380D01*
X0087900Y0033220D01*
X0087900Y0034876D02*
X0070705Y0034876D01*
X0072303Y0036475D02*
X0087900Y0036475D01*
X0087900Y0038073D02*
X0074002Y0038073D01*
X0076992Y0039672D02*
X0160735Y0039672D01*
X0162333Y0041270D02*
X0078613Y0041270D01*
X0077900Y0046066D02*
X0073392Y0046066D01*
X0072136Y0047664D02*
X0077900Y0047664D01*
X0073392Y0052460D02*
X0088660Y0052460D01*
X0087900Y0054058D02*
X0073392Y0054058D01*
X0073392Y0055657D02*
X0087900Y0055657D01*
X0087900Y0057255D02*
X0072545Y0057255D01*
X0070947Y0058854D02*
X0088374Y0058854D01*
X0093600Y0060452D02*
X0071661Y0060452D01*
X0073259Y0062051D02*
X0093600Y0062051D01*
X0097400Y0062051D02*
X0174701Y0062051D01*
X0174701Y0063649D02*
X0163700Y0063649D01*
X0163700Y0063220D02*
X0163700Y0068380D01*
X0162880Y0069200D01*
X0148720Y0069200D01*
X0147900Y0068380D01*
X0147900Y0063220D01*
X0148720Y0062400D01*
X0162880Y0062400D01*
X0163700Y0063220D01*
X0163700Y0065248D02*
X0174701Y0065248D01*
X0174701Y0066846D02*
X0163700Y0066846D01*
X0163635Y0068445D02*
X0174701Y0068445D01*
X0174701Y0070043D02*
X0095044Y0070043D01*
X0096642Y0068445D02*
X0147965Y0068445D01*
X0147900Y0066846D02*
X0097400Y0066846D01*
X0097400Y0065248D02*
X0147900Y0065248D01*
X0147900Y0063649D02*
X0097400Y0063649D01*
X0097400Y0060452D02*
X0174701Y0060452D01*
X0174701Y0058854D02*
X0153226Y0058854D01*
X0152880Y0059200D02*
X0153700Y0058380D01*
X0153700Y0053220D01*
X0152880Y0052400D01*
X0138720Y0052400D01*
X0137900Y0053220D01*
X0137900Y0058380D01*
X0138720Y0059200D01*
X0152880Y0059200D01*
X0153700Y0057255D02*
X0174701Y0057255D01*
X0174701Y0055657D02*
X0171219Y0055657D01*
X0171113Y0055763D02*
X0169937Y0056250D01*
X0168663Y0056250D01*
X0167487Y0055763D01*
X0166587Y0054863D01*
X0166100Y0053687D01*
X0166100Y0052413D01*
X0166587Y0051237D01*
X0167400Y0050425D01*
X0167400Y0046337D01*
X0158513Y0037450D01*
X0153700Y0037450D01*
X0153700Y0038380D01*
X0152880Y0039200D01*
X0138720Y0039200D01*
X0137900Y0038380D01*
X0137900Y0033220D01*
X0138720Y0032400D01*
X0152880Y0032400D01*
X0153700Y0033220D01*
X0153700Y0033650D01*
X0160087Y0033650D01*
X0170087Y0043650D01*
X0171200Y0044763D01*
X0171200Y0050425D01*
X0172013Y0051237D01*
X0172500Y0052413D01*
X0172500Y0053687D01*
X0172013Y0054863D01*
X0171113Y0055763D01*
X0172346Y0054058D02*
X0174701Y0054058D01*
X0174701Y0052460D02*
X0172500Y0052460D01*
X0171637Y0050861D02*
X0174701Y0050861D01*
X0174701Y0049263D02*
X0171200Y0049263D01*
X0171200Y0047664D02*
X0174701Y0047664D01*
X0174701Y0046066D02*
X0171200Y0046066D01*
X0170904Y0044467D02*
X0174701Y0044467D01*
X0174701Y0042869D02*
X0169306Y0042869D01*
X0167707Y0041270D02*
X0174701Y0041270D01*
X0174701Y0039672D02*
X0166109Y0039672D01*
X0164510Y0038073D02*
X0174701Y0038073D01*
X0174701Y0036475D02*
X0162912Y0036475D01*
X0161313Y0034876D02*
X0174701Y0034876D01*
X0174701Y0033278D02*
X0153700Y0033278D01*
X0153700Y0038073D02*
X0159136Y0038073D01*
X0162880Y0042400D02*
X0163700Y0043220D01*
X0163700Y0048380D01*
X0162880Y0049200D01*
X0148720Y0049200D01*
X0147900Y0048380D01*
X0147900Y0043220D01*
X0148720Y0042400D01*
X0162880Y0042400D01*
X0163349Y0042869D02*
X0163932Y0042869D01*
X0163700Y0044467D02*
X0165530Y0044467D01*
X0167129Y0046066D02*
X0163700Y0046066D01*
X0163700Y0047664D02*
X0167400Y0047664D01*
X0167400Y0049263D02*
X0070538Y0049263D01*
X0072070Y0050861D02*
X0166963Y0050861D01*
X0166100Y0052460D02*
X0152940Y0052460D01*
X0153700Y0054058D02*
X0166254Y0054058D01*
X0167381Y0055657D02*
X0153700Y0055657D01*
X0147900Y0047664D02*
X0093700Y0047664D01*
X0093700Y0046066D02*
X0147900Y0046066D01*
X0147900Y0044467D02*
X0093700Y0044467D01*
X0093349Y0042869D02*
X0148251Y0042869D01*
X0137900Y0038073D02*
X0103700Y0038073D01*
X0103700Y0036475D02*
X0137900Y0036475D01*
X0137900Y0034876D02*
X0103700Y0034876D01*
X0103700Y0033278D02*
X0137900Y0033278D01*
X0147900Y0028380D02*
X0147900Y0023220D01*
X0148720Y0022400D01*
X0162880Y0022400D01*
X0163700Y0023220D01*
X0163700Y0028380D01*
X0162880Y0029200D01*
X0148720Y0029200D01*
X0147900Y0028380D01*
X0148002Y0028482D02*
X0093598Y0028482D01*
X0093700Y0028380D02*
X0092880Y0029200D01*
X0078720Y0029200D01*
X0077900Y0028380D01*
X0077900Y0023220D01*
X0078720Y0022400D01*
X0092880Y0022400D01*
X0093700Y0023220D01*
X0093700Y0028380D01*
X0093700Y0026884D02*
X0147900Y0026884D01*
X0147900Y0025285D02*
X0093700Y0025285D01*
X0093700Y0023687D02*
X0147900Y0023687D01*
X0163700Y0023687D02*
X0174701Y0023687D01*
X0174701Y0025285D02*
X0163700Y0025285D01*
X0163700Y0026884D02*
X0174701Y0026884D01*
X0174701Y0028482D02*
X0163598Y0028482D01*
X0174701Y0022088D02*
X0030600Y0022088D01*
X0030600Y0020490D02*
X0174701Y0020490D01*
X0174701Y0018891D02*
X0030600Y0018891D01*
X0030600Y0017293D02*
X0174701Y0017293D01*
X0174701Y0015694D02*
X0030600Y0015694D01*
X0030600Y0014096D02*
X0174701Y0014096D01*
X0174701Y0012497D02*
X0030600Y0012497D01*
X0030600Y0023687D02*
X0077900Y0023687D01*
X0077900Y0025285D02*
X0030600Y0025285D01*
X0030600Y0026884D02*
X0077900Y0026884D01*
X0078002Y0028482D02*
X0030600Y0028482D01*
X0030600Y0033278D02*
X0044767Y0033278D01*
X0044400Y0034876D02*
X0030600Y0034876D01*
X0030600Y0036475D02*
X0044830Y0036475D01*
X0030600Y0038073D02*
X0068245Y0038073D01*
X0073392Y0063649D02*
X0077900Y0063649D01*
X0077900Y0065248D02*
X0073392Y0065248D01*
X0072954Y0066846D02*
X0077900Y0066846D01*
X0077965Y0068445D02*
X0071356Y0068445D01*
X0074364Y0074839D02*
X0075874Y0074839D01*
X0070281Y0079634D02*
X0030600Y0079634D01*
X0030600Y0078036D02*
X0048708Y0078036D01*
X0047672Y0076437D02*
X0030600Y0076437D01*
X0030600Y0074839D02*
X0046625Y0074839D01*
X0045579Y0073240D02*
X0030600Y0073240D01*
X0030600Y0071642D02*
X0044532Y0071642D01*
X0042017Y0070043D02*
X0030600Y0070043D01*
X0030600Y0068445D02*
X0041600Y0068445D01*
X0041980Y0066846D02*
X0030600Y0066846D01*
X0030600Y0065248D02*
X0044048Y0065248D01*
X0030600Y0081233D02*
X0069480Y0081233D01*
X0067881Y0082832D02*
X0030600Y0082832D01*
X0030600Y0084430D02*
X0066283Y0084430D01*
X0064684Y0086029D02*
X0030600Y0086029D01*
X0030600Y0087627D02*
X0063086Y0087627D01*
X0061487Y0089226D02*
X0030600Y0089226D01*
X0030600Y0090824D02*
X0059889Y0090824D01*
X0058290Y0092423D02*
X0030600Y0092423D01*
X0030600Y0094021D02*
X0056692Y0094021D01*
X0055093Y0095620D02*
X0030600Y0095620D01*
X0030600Y0097218D02*
X0053495Y0097218D01*
X0051896Y0098817D02*
X0030600Y0098817D01*
X0030600Y0100415D02*
X0050298Y0100415D01*
X0048699Y0102014D02*
X0030600Y0102014D01*
X0030600Y0103612D02*
X0047101Y0103612D01*
X0045502Y0105211D02*
X0030600Y0105211D01*
X0030600Y0106809D02*
X0043904Y0106809D01*
X0042305Y0108408D02*
X0030600Y0108408D01*
X0030600Y0110006D02*
X0040707Y0110006D01*
X0039108Y0111605D02*
X0030600Y0111605D01*
X0030600Y0113203D02*
X0037510Y0113203D01*
X0035911Y0114802D02*
X0030600Y0114802D01*
X0030600Y0116400D02*
X0034313Y0116400D01*
X0033900Y0117999D02*
X0030600Y0117999D01*
X0030600Y0119597D02*
X0033900Y0119597D01*
X0033900Y0121196D02*
X0030600Y0121196D01*
X0030600Y0122794D02*
X0033900Y0122794D01*
X0033900Y0124393D02*
X0030600Y0124393D01*
X0030600Y0125991D02*
X0033900Y0125991D01*
X0033900Y0127590D02*
X0030600Y0127590D01*
X0030600Y0129188D02*
X0033900Y0129188D01*
X0033900Y0130787D02*
X0030600Y0130787D01*
X0030600Y0132385D02*
X0033900Y0132385D01*
X0033900Y0133984D02*
X0030600Y0133984D01*
X0030600Y0135582D02*
X0033900Y0135582D01*
X0033900Y0137181D02*
X0030600Y0137181D01*
X0030600Y0138779D02*
X0033900Y0138779D01*
X0033900Y0140378D02*
X0030600Y0140378D01*
X0030600Y0141976D02*
X0033900Y0141976D01*
X0033900Y0143575D02*
X0030600Y0143575D01*
X0030600Y0145173D02*
X0033900Y0145173D01*
X0033900Y0146772D02*
X0030600Y0146772D01*
X0030600Y0148370D02*
X0033900Y0148370D01*
X0033900Y0149969D02*
X0030600Y0149969D01*
X0030600Y0151568D02*
X0033900Y0151568D01*
X0033900Y0153166D02*
X0030600Y0153166D01*
X0030600Y0154765D02*
X0033900Y0154765D01*
X0033900Y0156363D02*
X0030600Y0156363D01*
X0030600Y0157962D02*
X0033900Y0157962D01*
X0033900Y0159560D02*
X0030600Y0159560D01*
X0030600Y0161159D02*
X0033900Y0161159D01*
X0033900Y0162757D02*
X0030600Y0162757D01*
X0030600Y0164356D02*
X0033900Y0164356D01*
X0033900Y0165954D02*
X0030600Y0165954D01*
X0030600Y0167553D02*
X0033900Y0167553D01*
X0033900Y0169151D02*
X0030600Y0169151D01*
X0030600Y0170750D02*
X0033900Y0170750D01*
X0033900Y0172348D02*
X0030600Y0172348D01*
X0030600Y0173947D02*
X0033900Y0173947D01*
X0033900Y0175545D02*
X0030600Y0175545D01*
X0030600Y0177144D02*
X0033900Y0177144D01*
X0033900Y0178742D02*
X0030600Y0178742D01*
X0030600Y0180341D02*
X0033900Y0180341D01*
X0033900Y0181939D02*
X0030600Y0181939D01*
X0030600Y0183538D02*
X0033900Y0183538D01*
X0033881Y0185136D02*
X0030600Y0185136D01*
X0030600Y0186735D02*
X0033978Y0186735D01*
X0035875Y0188333D02*
X0030600Y0188333D01*
X0030600Y0189932D02*
X0037798Y0189932D01*
X0039721Y0191530D02*
X0030600Y0191530D01*
X0030600Y0193129D02*
X0041645Y0193129D01*
X0043568Y0194727D02*
X0030600Y0194727D01*
X0030600Y0196326D02*
X0045491Y0196326D01*
X0047414Y0197924D02*
X0030600Y0197924D01*
X0030600Y0199523D02*
X0049337Y0199523D01*
X0051260Y0201121D02*
X0030600Y0201121D01*
X0030600Y0202720D02*
X0053183Y0202720D01*
X0055106Y0204318D02*
X0030600Y0204318D01*
X0030600Y0205917D02*
X0057029Y0205917D01*
X0064200Y0196326D02*
X0067931Y0196326D01*
X0067931Y0197924D02*
X0065284Y0197924D01*
X0066105Y0194727D02*
X0067931Y0194727D01*
X0067931Y0193129D02*
X0066653Y0193129D01*
X0066653Y0191530D02*
X0067931Y0191530D01*
X0067931Y0189932D02*
X0066653Y0189932D01*
X0066653Y0188333D02*
X0068586Y0188333D01*
X0066951Y0186735D02*
X0071505Y0186735D01*
X0076637Y0197924D02*
X0077424Y0197924D01*
X0083176Y0197924D02*
X0085237Y0197924D01*
X0085009Y0199523D02*
X0086836Y0199523D01*
X0088434Y0201121D02*
X0085157Y0201121D01*
X0084297Y0202720D02*
X0090033Y0202720D01*
X0091631Y0204318D02*
X0085200Y0204318D01*
X0084910Y0205917D02*
X0093230Y0205917D01*
X0094828Y0207515D02*
X0083154Y0207515D01*
X0085006Y0209114D02*
X0096427Y0209114D01*
X0098025Y0210712D02*
X0085161Y0210712D01*
X0084088Y0212311D02*
X0099624Y0212311D01*
X0101222Y0213909D02*
X0085170Y0213909D01*
X0084997Y0215508D02*
X0102821Y0215508D01*
X0104419Y0217106D02*
X0083616Y0217106D01*
X0085085Y0218705D02*
X0106018Y0218705D01*
X0107616Y0220303D02*
X0085081Y0220303D01*
X0083646Y0221902D02*
X0110985Y0221902D01*
X0110839Y0223501D02*
X0084924Y0223501D01*
X0084842Y0225099D02*
X0110839Y0225099D01*
X0111085Y0226698D02*
X0083165Y0226698D01*
X0087585Y0231493D02*
X0110407Y0231493D01*
X0110407Y0233092D02*
X0088045Y0233092D01*
X0088045Y0234690D02*
X0111224Y0234690D01*
X0115627Y0234690D02*
X0119165Y0234690D01*
X0118600Y0233092D02*
X0116444Y0233092D01*
X0116444Y0231493D02*
X0118878Y0231493D01*
X0119747Y0229895D02*
X0116509Y0229895D01*
X0115972Y0228296D02*
X0119664Y0228296D01*
X0123469Y0228296D02*
X0174701Y0228296D01*
X0174701Y0226698D02*
X0123387Y0226698D01*
X0123304Y0225099D02*
X0174701Y0225099D01*
X0174701Y0223501D02*
X0123221Y0223501D01*
X0123138Y0221902D02*
X0174701Y0221902D01*
X0174701Y0220303D02*
X0135925Y0220303D01*
X0136053Y0218705D02*
X0174701Y0218705D01*
X0174701Y0217106D02*
X0131780Y0217106D01*
X0130820Y0217106D02*
X0119757Y0217106D01*
X0119944Y0215508D02*
X0126547Y0215508D01*
X0126637Y0213909D02*
X0119944Y0213909D01*
X0119828Y0212311D02*
X0126947Y0212311D01*
X0126947Y0210712D02*
X0119944Y0210712D01*
X0119944Y0209114D02*
X0126947Y0209114D01*
X0126947Y0207515D02*
X0119899Y0207515D01*
X0119944Y0205917D02*
X0127451Y0205917D01*
X0125300Y0203300D02*
X0131550Y0203300D01*
X0125300Y0203300D02*
X0125300Y0175300D01*
X0106300Y0175300D01*
X0106300Y0182284D01*
X0105749Y0182284D01*
X0108724Y0180341D02*
X0112924Y0180341D01*
X0113804Y0178742D02*
X0108714Y0178742D01*
X0116391Y0178742D02*
X0116760Y0178742D01*
X0116760Y0177531D02*
X0116947Y0177531D01*
X0117675Y0177676D01*
X0118361Y0177960D01*
X0118978Y0178373D01*
X0119503Y0178898D01*
X0119915Y0179515D01*
X0120199Y0180201D01*
X0120344Y0180929D01*
X0120344Y0181116D01*
X0116760Y0181116D01*
X0116760Y0177531D01*
X0116760Y0180341D02*
X0116391Y0180341D01*
X0116391Y0181939D02*
X0116760Y0181939D01*
X0116760Y0183538D02*
X0116391Y0183538D01*
X0116444Y0185136D02*
X0123100Y0185136D01*
X0123100Y0183538D02*
X0119613Y0183538D01*
X0120291Y0181939D02*
X0123100Y0181939D01*
X0123100Y0180341D02*
X0120227Y0180341D01*
X0119347Y0178742D02*
X0123100Y0178742D01*
X0123100Y0186735D02*
X0116371Y0186735D01*
X0119290Y0188333D02*
X0123100Y0188333D01*
X0123100Y0189932D02*
X0119944Y0189932D01*
X0119944Y0191530D02*
X0123100Y0191530D01*
X0123100Y0193129D02*
X0119944Y0193129D01*
X0119944Y0194727D02*
X0123100Y0194727D01*
X0123100Y0196326D02*
X0119944Y0196326D01*
X0119944Y0197924D02*
X0123100Y0197924D01*
X0123100Y0199523D02*
X0119944Y0199523D01*
X0119944Y0201121D02*
X0123100Y0201121D01*
X0123100Y0202720D02*
X0119944Y0202720D01*
X0119944Y0204318D02*
X0123207Y0204318D01*
X0123011Y0218705D02*
X0126547Y0218705D01*
X0126675Y0220303D02*
X0123056Y0220303D01*
X0123552Y0229895D02*
X0174701Y0229895D01*
X0174701Y0231493D02*
X0124722Y0231493D01*
X0125000Y0233092D02*
X0174701Y0233092D01*
X0174701Y0234690D02*
X0124435Y0234690D01*
X0115591Y0226698D02*
X0115591Y0226698D01*
X0115591Y0225099D02*
X0115591Y0225099D01*
X0110880Y0228296D02*
X0076996Y0228296D01*
X0077035Y0226698D02*
X0076790Y0226698D01*
X0077533Y0229895D02*
X0110342Y0229895D01*
X0130820Y0220303D02*
X0131780Y0220303D01*
X0131780Y0218705D02*
X0130820Y0218705D01*
X0136053Y0215508D02*
X0174701Y0215508D01*
X0174701Y0213909D02*
X0135963Y0213909D01*
X0135653Y0212311D02*
X0174701Y0212311D01*
X0174701Y0236289D02*
X0088045Y0236289D01*
X0088045Y0237887D02*
X0174701Y0237887D01*
X0148671Y0169151D02*
X0142925Y0169151D01*
X0143804Y0167553D02*
X0147900Y0167553D01*
X0147900Y0165954D02*
X0144684Y0165954D01*
X0145563Y0164356D02*
X0147900Y0164356D01*
X0146000Y0159560D02*
X0145600Y0159560D01*
X0145600Y0157962D02*
X0146000Y0157962D01*
X0142105Y0162757D02*
X0093237Y0162757D01*
X0093700Y0164356D02*
X0141226Y0164356D01*
X0140347Y0165954D02*
X0093700Y0165954D01*
X0093700Y0167553D02*
X0139468Y0167553D01*
X0138588Y0169151D02*
X0092929Y0169151D01*
X0087787Y0138779D02*
X0073021Y0138779D01*
X0073392Y0137181D02*
X0087500Y0137181D01*
X0087500Y0135582D02*
X0073392Y0135582D01*
X0073192Y0133984D02*
X0087500Y0133984D01*
X0088169Y0132385D02*
X0071594Y0132385D01*
X0071014Y0130787D02*
X0108100Y0130787D01*
X0109698Y0132385D02*
X0103431Y0132385D01*
X0104100Y0133984D02*
X0111297Y0133984D01*
X0112895Y0135582D02*
X0104100Y0135582D01*
X0104100Y0137181D02*
X0114494Y0137181D01*
X0114888Y0138779D02*
X0103813Y0138779D01*
X0115852Y0140378D02*
X0071423Y0140378D01*
X0072612Y0129188D02*
X0078708Y0129188D01*
X0077900Y0127590D02*
X0073392Y0127590D01*
X0073392Y0125991D02*
X0077900Y0125991D01*
X0077900Y0124393D02*
X0073392Y0124393D01*
X0072003Y0122794D02*
X0078326Y0122794D01*
X0071824Y0114802D02*
X0087900Y0114802D01*
X0093672Y0108408D02*
X0105447Y0108408D01*
X0105842Y0110006D02*
X0075719Y0110006D01*
X0076729Y0108408D02*
X0077928Y0108408D01*
X0077900Y0106809D02*
X0076736Y0106809D01*
X0075736Y0105211D02*
X0077900Y0105211D01*
X0077900Y0103612D02*
X0075400Y0103612D01*
X0075400Y0102014D02*
X0115947Y0102014D01*
X0115947Y0103612D02*
X0114153Y0103612D01*
X0114153Y0105211D02*
X0115947Y0105211D01*
X0115947Y0106809D02*
X0114153Y0106809D01*
X0114153Y0108408D02*
X0139505Y0108408D01*
X0137907Y0110006D02*
X0113758Y0110006D01*
X0114153Y0111605D02*
X0136308Y0111605D01*
X0134710Y0113203D02*
X0114153Y0113203D01*
X0114153Y0114802D02*
X0133111Y0114802D01*
X0131513Y0116400D02*
X0114153Y0116400D01*
X0105447Y0116400D02*
X0103700Y0116400D01*
X0103700Y0114802D02*
X0105447Y0114802D01*
X0105447Y0103612D02*
X0093700Y0103612D01*
X0087900Y0095620D02*
X0084526Y0095620D01*
X0075400Y0100415D02*
X0116433Y0100415D01*
X0115947Y0098817D02*
X0103263Y0098817D01*
X0119961Y0089226D02*
X0128947Y0089226D01*
X0129024Y0090824D02*
X0126611Y0090824D01*
X0128210Y0092423D02*
X0128947Y0092423D01*
X0128947Y0084430D02*
X0119653Y0084430D01*
X0119653Y0082832D02*
X0129537Y0082832D01*
X0129609Y0079634D02*
X0119653Y0079634D01*
X0119653Y0078036D02*
X0128641Y0078036D01*
X0128694Y0076437D02*
X0119653Y0076437D01*
X0119653Y0074839D02*
X0129736Y0074839D01*
X0133864Y0074839D02*
X0137900Y0074839D01*
X0137900Y0076437D02*
X0134906Y0076437D01*
X0136720Y0078036D02*
X0137900Y0078036D01*
X0139384Y0079634D02*
X0144440Y0079634D01*
X0148725Y0079200D02*
X0149513Y0079987D01*
X0150000Y0081163D01*
X0150000Y0082400D01*
X0162880Y0082400D01*
X0163700Y0083220D01*
X0163700Y0085613D01*
X0166700Y0088613D01*
X0166700Y0096072D01*
X0166972Y0095800D01*
X0168463Y0095800D01*
X0168425Y0095659D01*
X0168425Y0093847D01*
X0168425Y0092035D01*
X0168548Y0091578D01*
X0168785Y0091167D01*
X0169120Y0090832D01*
X0169399Y0090671D01*
X0169220Y0090568D01*
X0168885Y0090233D01*
X0168648Y0089822D01*
X0168525Y0089365D01*
X0168525Y0087553D01*
X0171900Y0087553D01*
X0171900Y0087553D01*
X0168525Y0087553D01*
X0168525Y0085741D01*
X0168648Y0085283D01*
X0168696Y0085200D01*
X0168013Y0085200D01*
X0166900Y0084087D01*
X0166900Y0080513D01*
X0167260Y0080153D01*
X0165901Y0080153D01*
X0165300Y0079552D01*
X0164699Y0080153D01*
X0158421Y0080153D01*
X0157601Y0079333D01*
X0157601Y0077800D01*
X0153700Y0077800D01*
X0153700Y0078380D01*
X0152880Y0079200D01*
X0148725Y0079200D01*
X0149160Y0079634D02*
X0157903Y0079634D01*
X0157601Y0078036D02*
X0153700Y0078036D01*
X0153700Y0073240D02*
X0157601Y0073240D01*
X0158226Y0071642D02*
X0119374Y0071642D01*
X0119653Y0073240D02*
X0137900Y0073240D01*
X0134662Y0081233D02*
X0119653Y0081233D01*
X0137063Y0082832D02*
X0137326Y0082832D01*
X0137653Y0084430D02*
X0144905Y0084430D01*
X0145847Y0087627D02*
X0137653Y0087627D01*
X0137653Y0086029D02*
X0147900Y0086029D01*
X0150000Y0081233D02*
X0166900Y0081233D01*
X0166900Y0082832D02*
X0163311Y0082832D01*
X0163700Y0084430D02*
X0167243Y0084430D01*
X0168525Y0086029D02*
X0164116Y0086029D01*
X0165714Y0087627D02*
X0168525Y0087627D01*
X0168525Y0089226D02*
X0166700Y0089226D01*
X0166700Y0090824D02*
X0169134Y0090824D01*
X0168425Y0092423D02*
X0166700Y0092423D01*
X0166700Y0094021D02*
X0168425Y0094021D01*
X0168425Y0093847D02*
X0171800Y0093847D01*
X0171800Y0090928D01*
X0171800Y0093847D01*
X0171800Y0093847D01*
X0168425Y0093847D01*
X0168425Y0095620D02*
X0166700Y0095620D01*
X0171800Y0093847D02*
X0171800Y0093847D01*
X0171800Y0092423D02*
X0171800Y0092423D01*
X0171800Y0090928D02*
X0171800Y0090928D01*
X0174669Y0102014D02*
X0174701Y0102014D01*
X0174701Y0103612D02*
X0173900Y0103612D01*
X0174153Y0105211D02*
X0174701Y0105211D01*
X0174701Y0106809D02*
X0174153Y0106809D01*
X0174153Y0108408D02*
X0174701Y0108408D01*
X0174701Y0110006D02*
X0174153Y0110006D01*
X0174153Y0111605D02*
X0174701Y0111605D01*
X0174701Y0113203D02*
X0174153Y0113203D01*
X0174153Y0114802D02*
X0174701Y0114802D01*
X0174701Y0116400D02*
X0174153Y0116400D01*
X0173833Y0117999D02*
X0174701Y0117999D01*
X0174701Y0119597D02*
X0167284Y0119597D01*
X0168700Y0121196D02*
X0174701Y0121196D01*
X0174701Y0122794D02*
X0168700Y0122794D01*
X0168700Y0124393D02*
X0174701Y0124393D01*
X0174701Y0125991D02*
X0168700Y0125991D01*
X0168700Y0127590D02*
X0174701Y0127590D01*
X0174701Y0129188D02*
X0168700Y0129188D01*
X0168000Y0130787D02*
X0174701Y0130787D01*
X0174701Y0132385D02*
X0166402Y0132385D01*
X0164803Y0133984D02*
X0174701Y0133984D01*
X0174701Y0135582D02*
X0163205Y0135582D01*
X0161606Y0137181D02*
X0174701Y0137181D01*
X0174701Y0138779D02*
X0160008Y0138779D01*
X0159817Y0140378D02*
X0174701Y0140378D01*
X0174701Y0141976D02*
X0158649Y0141976D01*
X0153600Y0138779D02*
X0153300Y0138779D01*
X0153700Y0137181D02*
X0154394Y0137181D01*
X0153700Y0135582D02*
X0157831Y0135582D01*
X0159429Y0133984D02*
X0153700Y0133984D01*
X0148720Y0129200D02*
X0147900Y0128380D01*
X0147900Y0123220D01*
X0148720Y0122400D01*
X0162880Y0122400D01*
X0163700Y0123220D01*
X0163700Y0128380D01*
X0162880Y0129200D01*
X0148720Y0129200D01*
X0148708Y0129188D02*
X0141575Y0129188D01*
X0139977Y0127590D02*
X0147900Y0127590D01*
X0147900Y0125991D02*
X0138378Y0125991D01*
X0137400Y0124393D02*
X0147900Y0124393D01*
X0148326Y0122794D02*
X0136957Y0122794D01*
X0133690Y0119597D02*
X0161910Y0119597D01*
X0160312Y0117999D02*
X0153700Y0117999D01*
X0153700Y0116400D02*
X0158713Y0116400D01*
X0155685Y0114802D02*
X0153700Y0114802D01*
X0153683Y0113203D02*
X0153918Y0113203D01*
X0153600Y0111605D02*
X0141682Y0111605D01*
X0143281Y0110006D02*
X0154079Y0110006D01*
X0159521Y0110006D02*
X0162989Y0110006D01*
X0163076Y0111605D02*
X0160000Y0111605D01*
X0160890Y0113203D02*
X0163496Y0113203D01*
X0164465Y0114802D02*
X0162489Y0114802D01*
X0164087Y0116400D02*
X0165447Y0116400D01*
X0165686Y0117999D02*
X0165767Y0117999D01*
X0163509Y0121196D02*
X0132091Y0121196D01*
X0131443Y0122794D02*
X0130493Y0122794D01*
X0131000Y0124393D02*
X0128894Y0124393D01*
X0127296Y0125991D02*
X0131354Y0125991D01*
X0133298Y0127590D02*
X0125697Y0127590D01*
X0124099Y0129188D02*
X0136201Y0129188D01*
X0137800Y0130787D02*
X0122500Y0130787D01*
X0120940Y0132385D02*
X0139398Y0132385D01*
X0143174Y0130787D02*
X0162626Y0130787D01*
X0162892Y0129188D02*
X0164225Y0129188D01*
X0163700Y0127590D02*
X0164900Y0127590D01*
X0164900Y0125991D02*
X0163700Y0125991D01*
X0163700Y0124393D02*
X0164900Y0124393D01*
X0164900Y0122794D02*
X0163274Y0122794D01*
X0161028Y0132385D02*
X0144772Y0132385D01*
X0137900Y0117999D02*
X0135288Y0117999D01*
X0136887Y0116400D02*
X0137900Y0116400D01*
X0141104Y0106809D02*
X0124653Y0106809D01*
X0124653Y0105211D02*
X0142702Y0105211D01*
X0144879Y0108408D02*
X0147928Y0108408D01*
X0138887Y0089226D02*
X0137653Y0089226D01*
X0138374Y0058854D02*
X0103226Y0058854D01*
X0103700Y0057255D02*
X0137900Y0057255D01*
X0137900Y0055657D02*
X0103700Y0055657D01*
X0103700Y0054058D02*
X0137900Y0054058D01*
X0138660Y0052460D02*
X0102940Y0052460D01*
X0065229Y0068445D02*
X0061356Y0068445D01*
X0062954Y0066846D02*
X0063630Y0066846D01*
X0064581Y0122794D02*
X0062003Y0122794D01*
X0082300Y0136000D02*
X0083000Y0136000D01*
X0083000Y0136200D01*
X0082300Y0136000D02*
X0082300Y0136700D01*
X0064753Y0149969D02*
X0061832Y0149969D01*
X0067976Y0207515D02*
X0030600Y0207515D01*
X0030600Y0209114D02*
X0067931Y0209114D01*
X0067931Y0210712D02*
X0030600Y0210712D01*
X0030600Y0212311D02*
X0068048Y0212311D01*
X0067931Y0213909D02*
X0030600Y0213909D01*
X0030600Y0215508D02*
X0067931Y0215508D01*
X0068119Y0217106D02*
X0030600Y0217106D01*
X0030600Y0218705D02*
X0067931Y0218705D01*
X0067931Y0220303D02*
X0030600Y0220303D01*
X0030600Y0221902D02*
X0067678Y0221902D01*
X0067531Y0223501D02*
X0030600Y0223501D01*
X0030600Y0225099D02*
X0067531Y0225099D01*
X0067778Y0226698D02*
X0030600Y0226698D01*
X0030600Y0228296D02*
X0071904Y0228296D01*
X0072284Y0226698D02*
X0072284Y0226698D01*
X0072284Y0225099D02*
X0072284Y0225099D01*
X0071366Y0229895D02*
X0030600Y0229895D01*
X0030600Y0231493D02*
X0071431Y0231493D01*
X0071431Y0233092D02*
X0030600Y0233092D01*
X0030600Y0234690D02*
X0072248Y0234690D01*
X0076651Y0234690D02*
X0077783Y0234690D01*
X0077783Y0233092D02*
X0077468Y0233092D01*
X0077468Y0231493D02*
X0078243Y0231493D01*
X0077783Y0236289D02*
X0030600Y0236289D01*
X0030600Y0237887D02*
X0077783Y0237887D01*
X0077446Y0207515D02*
X0076592Y0207515D01*
X0163700Y0148370D02*
X0174701Y0148370D01*
X0174701Y0146772D02*
X0163700Y0146772D01*
X0163700Y0145173D02*
X0174701Y0145173D01*
X0174701Y0143575D02*
X0163700Y0143575D01*
X0165217Y0079634D02*
X0165383Y0079634D01*
X0165706Y0071642D02*
X0164893Y0071642D01*
X0172374Y0071642D02*
X0174701Y0071642D01*
X0174701Y0073240D02*
X0172999Y0073240D01*
X0173810Y0074839D02*
X0174701Y0074839D01*
X0174701Y0076437D02*
X0173888Y0076437D01*
X0173861Y0078036D02*
X0174701Y0078036D01*
D23*
X0165300Y0082300D03*
X0122800Y0055300D03*
X0123300Y0111300D03*
D24*
X0167800Y0100300D02*
X0167800Y0097800D01*
X0167800Y0093300D02*
X0167800Y0088800D01*
X0168300Y0089300D02*
X0171800Y0089300D01*
X0171800Y0093300D01*
X0167800Y0093300D01*
X0167300Y0089300D02*
X0168300Y0089300D01*
X0171800Y0089300D02*
X0172300Y0089300D01*
X0077800Y0184800D02*
X0077800Y0190800D01*
X0071800Y0076800D02*
X0050300Y0076800D01*
X0044800Y0068400D01*
X0047600Y0034800D02*
X0053300Y0033800D01*
X0053800Y0033300D01*
X0066300Y0033300D01*
X0072000Y0039000D01*
X0072100Y0039000D01*
D25*
X0165300Y0082300D02*
X0168300Y0089300D01*
X0110800Y0183400D02*
X0110800Y0185700D01*
X0107300Y0187800D02*
X0105500Y0187700D01*
X0105100Y0190900D02*
X0109700Y0190900D01*
X0109700Y0195700D02*
X0105100Y0195700D01*
X0105300Y0199800D02*
X0109900Y0199800D01*
X0109500Y0204400D02*
X0104900Y0204400D01*
X0104900Y0209400D02*
X0109500Y0209400D01*
X0110000Y0213800D02*
X0108200Y0213700D01*
X0101100Y0191400D02*
X0101100Y0187600D01*
X0096500Y0187700D02*
X0096500Y0191500D01*
X0092200Y0191700D02*
X0092200Y0187900D01*
X0087300Y0188100D02*
X0087300Y0191700D01*
X0082400Y0191700D02*
X0082400Y0187900D01*
X0082600Y0200500D02*
X0078000Y0200500D01*
X0078000Y0204700D02*
X0082600Y0204700D01*
X0082600Y0210100D02*
X0078000Y0210100D01*
X0078000Y0214500D02*
X0082600Y0214500D01*
X0082600Y0219500D02*
X0078000Y0219500D01*
X0077800Y0224200D02*
X0082400Y0224200D01*
M02*
